\relax 
\providecommand\hyper@newdestlabel[2]{}
\providecommand\HyperFirstAtBeginDocument{\AtBeginDocument}
\HyperFirstAtBeginDocument{\ifx\hyper@anchor\@undefined
\global\let\oldcontentsline\contentsline
\gdef\contentsline#1#2#3#4{\oldcontentsline{#1}{#2}{#3}}
\global\let\oldnewlabel\newlabel
\gdef\newlabel#1#2{\newlabelxx{#1}#2}
\gdef\newlabelxx#1#2#3#4#5#6{\oldnewlabel{#1}{{#2}{#3}}}
\AtEndDocument{\ifx\hyper@anchor\@undefined
\let\contentsline\oldcontentsline
\let\newlabel\oldnewlabel
\fi}
\fi}
\global\let\hyper@last\relax 
\gdef\HyperFirstAtBeginDocument#1{#1}
\providecommand\HyField@AuxAddToFields[1]{}
\providecommand\HyField@AuxAddToCoFields[2]{}
\select@language{english}
\@writefile{toc}{\select@language{english}}
\@writefile{lof}{\select@language{english}}
\@writefile{lot}{\select@language{english}}
\pgfsyspdfmark {pgfid2}{0}{0}
\pgfsyspdfmark {pgfid1}{6577079}{47493192}
\@writefile{toc}{\contentsline {section}{\numberline {1}Introduction}{1}{section.1}}
\@writefile{toc}{\contentsline {section}{\numberline {2}2D Heat equation}{1}{section.2}}
\@writefile{toc}{\contentsline {subsection}{\numberline {2.1}MATLAB Implementation}{1}{subsection.2.1}}
\@writefile{lol}{\contentsline {lstlisting}{../heatEulerReport.m}{1}{lstlisting.-1}}
\@writefile{lof}{\contentsline {figure}{\numberline {1}{\ignorespaces Second order convergence in space for the 2D heat equation.\relax }}{2}{figure.caption.1}}
\providecommand*\caption@xref[2]{\@setref\relax\@undefined{#1}}
\newlabel{fig:heatconv}{{1}{2}{Second order convergence in space for the 2D heat equation.\relax }{figure.caption.1}{}}
\newlabel{fig:heatmu0.25}{{2a}{2}{Subfigure 2a}{subfigure.2.1}{}}
\newlabel{sub@fig:heatmu0.25}{{(a)}{a}{Subfigure 2a\relax }{subfigure.2.1}{}}
\newlabel{fig:heatmu0.26}{{2b}{2}{Subfigure 2b}{subfigure.2.2}{}}
\newlabel{sub@fig:heatmu0.26}{{(b)}{b}{Subfigure 2b\relax }{subfigure.2.2}{}}
\@writefile{lof}{\contentsline {subfigure}{\numberline{(a)}{\ignorespaces {The numerical solution of the heat equation at time $t_f=1$. We see that the solution converges nicely to 0.}}}{2}{subfigure.2.1}}
\@writefile{lof}{\contentsline {subfigure}{\numberline{(b)}{\ignorespaces {The numerical solution of the heat equation at time $t_f=2$. We see that the solution becomes unstable and starts to explode.}}}{2}{subfigure.2.2}}
\@writefile{toc}{\contentsline {subsection}{\numberline {2.2}Correctness of the implementation}{2}{subsection.2.2}}
\@writefile{toc}{\contentsline {subsection}{\numberline {2.3}Stability limitation}{2}{subsection.2.3}}
\@writefile{lot}{\contentsline {table}{\numberline {1}{\ignorespaces Numerical errors for the heat equation of the example problem, for $\mu = 0.25$. From the table we read second order in space and first order in time.\relax }}{3}{table.caption.3}}
\newlabel{tab:heat}{{1}{3}{Numerical errors for the heat equation of the example problem, for $\mu = 0.25$. From the table we read second order in space and first order in time.\relax }{table.caption.3}{}}
\@writefile{lof}{\contentsline {figure}{\numberline {2}{\ignorespaces The numerical solution of the heat equation at times $t_f=0.1$ and $t_f=0.2$.\relax }}{3}{figure.caption.4}}
\newlabel{fig:heatexp}{{2}{3}{The numerical solution of the heat equation at times $t_f=0.1$ and $t_f=0.2$.\relax }{figure.caption.4}{}}
\@writefile{toc}{\contentsline {subsection}{\numberline {2.4}Accuracy of explicit Euler}{3}{subsection.2.4}}
\@writefile{toc}{\contentsline {subsection}{\numberline {2.5}Application to another initial condition}{3}{subsection.2.5}}
\@writefile{toc}{\contentsline {section}{\numberline {3}2D Wave equation}{3}{section.3}}
\@writefile{toc}{\contentsline {subsection}{\numberline {3.1}MATLAB Implementation}{4}{subsection.3.1}}
\@writefile{lol}{\contentsline {lstlisting}{../waveEulerReport.m}{4}{lstlisting.-2}}
\@writefile{toc}{\contentsline {subsection}{\numberline {3.2}Correctness of the implementation}{4}{subsection.3.2}}
\newlabel{subsec:correctnessWave}{{3.2}{4}{Correctness of the implementation}{subsection.3.2}{}}
\@writefile{toc}{\contentsline {subsection}{\numberline {3.3}Stability limitation}{4}{subsection.3.3}}
\@writefile{lof}{\contentsline {figure}{\numberline {3}{\ignorespaces Second order convergence in space for the 2D wave equation.\relax }}{5}{figure.caption.5}}
\newlabel{fig:waveconv}{{3}{5}{Second order convergence in space for the 2D wave equation.\relax }{figure.caption.5}{}}
\newlabel{fig:wavenustable}{{4a}{5}{Subfigure 4a}{subfigure.4.1}{}}
\newlabel{sub@fig:wavenustable}{{(a)}{a}{Subfigure 4a\relax }{subfigure.4.1}{}}
\newlabel{fig:wavenuunstable}{{4b}{5}{Subfigure 4b}{subfigure.4.2}{}}
\newlabel{sub@fig:wavenuunstable}{{(b)}{b}{Subfigure 4b\relax }{subfigure.4.2}{}}
\@writefile{lof}{\contentsline {subfigure}{\numberline{(a)}{\ignorespaces {The numerical solution of the wave equation at time $t_f=1.5$. We see that the solution nicely oscillates bounded.}}}{5}{subfigure.4.1}}
\@writefile{lof}{\contentsline {subfigure}{\numberline{(b)}{\ignorespaces {The numerical solution of the wave equation at time $t_f=1.5$. We see that the solution becomes unstable and starts to explode.}}}{5}{subfigure.4.2}}
\@writefile{toc}{\contentsline {subsection}{\numberline {3.4}Accuracy of explicit scheme}{5}{subsection.3.4}}
\@writefile{toc}{\contentsline {subsection}{\numberline {3.5}Application to another initial condition}{5}{subsection.3.5}}
\@writefile{lot}{\contentsline {table}{\numberline {2}{\ignorespaces Numerical errors for the wave equation of the example problem, for $\nu = 1/\sqrt  {2}$ and $\nu = 0.4$. From the table we read second order in space and time.\relax }}{6}{table.caption.7}}
\newlabel{tab:wave}{{2}{6}{Numerical errors for the wave equation of the example problem, for $\nu = 1/\sqrt {2}$ and $\nu = 0.4$. From the table we read second order in space and time.\relax }{table.caption.7}{}}
\@writefile{lof}{\contentsline {figure}{\numberline {4}{\ignorespaces The numerical solution of the wave equation at times $t_f=0.1$ and $t_f=0.2$.\relax }}{6}{figure.caption.8}}
\newlabel{fig:waveexp}{{4}{6}{The numerical solution of the wave equation at times $t_f=0.1$ and $t_f=0.2$.\relax }{figure.caption.8}{}}
\@writefile{toc}{\contentsline {section}{\numberline {4}2D Transport equation}{6}{section.4}}
\@writefile{toc}{\contentsline {subsection}{\numberline {4.1}MATLAB Implementation}{6}{subsection.4.1}}
\@writefile{lol}{\contentsline {lstlisting}{../transportUpwindReport.m}{6}{lstlisting.-3}}
\@writefile{lof}{\contentsline {figure}{\numberline {5}{\ignorespaces Convergence order of the 2D transport equation if we keep $\nu $ constant. We clearly see that the maximal error decreases as $\mathcal  {O}(\sqrt  {\Delta x})$.\relax }}{7}{figure.caption.9}}
\newlabel{fig:transportconv}{{5}{7}{Convergence order of the 2D transport equation if we keep $\nu $ constant. We clearly see that the maximal error decreases as $\mathcal {O}(\sqrt {\Delta x})$.\relax }{figure.caption.9}{}}
\@writefile{toc}{\contentsline {subsection}{\numberline {4.2}Correctness of the implementation}{7}{subsection.4.2}}
\@writefile{toc}{\contentsline {subsection}{\numberline {4.3}Stability limitation}{7}{subsection.4.3}}
\@writefile{toc}{\contentsline {subsection}{\numberline {4.4}Accuracy of the upwind scheme}{7}{subsection.4.4}}
\newlabel{fig:transport05}{{6a}{8}{Subfigure 6a}{subfigure.6.1}{}}
\newlabel{sub@fig:transport05}{{(a)}{a}{Subfigure 6a\relax }{subfigure.6.1}{}}
\newlabel{fig:transport06}{{6b}{8}{Subfigure 6b}{subfigure.6.2}{}}
\newlabel{sub@fig:transport06}{{(b)}{b}{Subfigure 6b\relax }{subfigure.6.2}{}}
\@writefile{lof}{\contentsline {subfigure}{\numberline{(a)}{\ignorespaces {Stable numerical solution of the transport equation with $\nu = 0.5$. We observe no ripples.}}}{8}{subfigure.6.1}}
\@writefile{lof}{\contentsline {subfigure}{\numberline{(b)}{\ignorespaces {Unstable numerical solution of the transport equation with $\nu =0.6$. Now we do see ripples that indicate instability.}}}{8}{subfigure.6.2}}
\@writefile{lot}{\contentsline {table}{\numberline {3}{\ignorespaces Numerical errors for the transport equation of the example problem, for $\nu = 0.5$. From the table we half an order convergence in space and time.\relax }}{8}{table.caption.11}}
\newlabel{tab:transport}{{3}{8}{Numerical errors for the transport equation of the example problem, for $\nu = 0.5$. From the table we half an order convergence in space and time.\relax }{table.caption.11}{}}
\@writefile{toc}{\contentsline {subsection}{\numberline {4.5}Application to another initial condition}{8}{subsection.4.5}}
\@writefile{lof}{\contentsline {figure}{\numberline {6}{\ignorespaces The numerical solution of the transport equation using the upwind scheme to an exponential initial condition.\relax }}{8}{figure.caption.12}}
\newlabel{fig:transportexp}{{6}{8}{The numerical solution of the transport equation using the upwind scheme to an exponential initial condition.\relax }{figure.caption.12}{}}
\newlabel{LastPage}{{}{8}{}{page.8}{}}
\xdef\lastpage@lastpage{8}
\xdef\lastpage@lastpageHy{8}
