%!PS-Adobe-3.0 EPSF-3.0
%%Creator: (MATLAB, The Mathworks, Inc. Version 9.1.0.441655 \(R2016b\). Operating System: Windows 8)
%%Title: C:/Users/Eigenaar/WIT/DVGL/pde-2/Verslag/transportconv.eps
%%CreationDate: 2016-12-14T16:44:09
%%Pages: (atend)
%%BoundingBox: 0 0 521 443
%%LanguageLevel: 3
%%EndComments
%%BeginProlog
%%BeginResource: procset (Apache XML Graphics Std ProcSet) 1.2 0
%%Version: 1.2 0
%%Copyright: (Copyright 2001-2003,2010 The Apache Software Foundation. License terms: http://www.apache.org/licenses/LICENSE-2.0)
/bd{bind def}bind def
/ld{load def}bd
/GR/grestore ld
/M/moveto ld
/LJ/setlinejoin ld
/C/curveto ld
/f/fill ld
/LW/setlinewidth ld
/GC/setgray ld
/t/show ld
/N/newpath ld
/CT/concat ld
/cp/closepath ld
/S/stroke ld
/L/lineto ld
/CC/setcmykcolor ld
/A/ashow ld
/GS/gsave ld
/RC/setrgbcolor ld
/RM/rmoveto ld
/ML/setmiterlimit ld
/re {4 2 roll M
1 index 0 rlineto
0 exch rlineto
neg 0 rlineto
cp } bd
/_ctm matrix def
/_tm matrix def
/BT { _ctm currentmatrix pop matrix _tm copy pop 0 0 moveto } bd
/ET { _ctm setmatrix } bd
/iTm { _ctm setmatrix _tm concat } bd
/Tm { _tm astore pop iTm 0 0 moveto } bd
/ux 0.0 def
/uy 0.0 def
/F {
  /Tp exch def
  /Tf exch def
  Tf findfont Tp scalefont setfont
  /cf Tf def  /cs Tp def
} bd
/ULS {currentpoint /uy exch def /ux exch def} bd
/ULE {
  /Tcx currentpoint pop def
  gsave
  newpath
  cf findfont cs scalefont dup
  /FontMatrix get 0 get /Ts exch def /FontInfo get dup
  /UnderlinePosition get Ts mul /To exch def
  /UnderlineThickness get Ts mul /Tt exch def
  ux uy To add moveto  Tcx uy To add lineto
  Tt setlinewidth stroke
  grestore
} bd
/OLE {
  /Tcx currentpoint pop def
  gsave
  newpath
  cf findfont cs scalefont dup
  /FontMatrix get 0 get /Ts exch def /FontInfo get dup
  /UnderlinePosition get Ts mul /To exch def
  /UnderlineThickness get Ts mul /Tt exch def
  ux uy To add cs add moveto Tcx uy To add cs add lineto
  Tt setlinewidth stroke
  grestore
} bd
/SOE {
  /Tcx currentpoint pop def
  gsave
  newpath
  cf findfont cs scalefont dup
  /FontMatrix get 0 get /Ts exch def /FontInfo get dup
  /UnderlinePosition get Ts mul /To exch def
  /UnderlineThickness get Ts mul /Tt exch def
  ux uy To add cs 10 mul 26 idiv add moveto Tcx uy To add cs 10 mul 26 idiv add lineto
  Tt setlinewidth stroke
  grestore
} bd
/QT {
/Y22 exch store
/X22 exch store
/Y21 exch store
/X21 exch store
currentpoint
/Y21 load 2 mul add 3 div exch
/X21 load 2 mul add 3 div exch
/X21 load 2 mul /X22 load add 3 div
/Y21 load 2 mul /Y22 load add 3 div
/X22 load /Y22 load curveto
} bd
/SSPD {
dup length /d exch dict def
{
/v exch def
/k exch def
currentpagedevice k known {
/cpdv currentpagedevice k get def
v cpdv ne {
/upd false def
/nullv v type /nulltype eq def
/nullcpdv cpdv type /nulltype eq def
nullv nullcpdv or
{
/upd true def
} {
/sametype v type cpdv type eq def
sametype {
v type /arraytype eq {
/vlen v length def
/cpdvlen cpdv length def
vlen cpdvlen eq {
0 1 vlen 1 sub {
/i exch def
/obj v i get def
/cpdobj cpdv i get def
obj cpdobj ne {
/upd true def
exit
} if
} for
} {
/upd true def
} ifelse
} {
v type /dicttype eq {
v {
/dv exch def
/dk exch def
/cpddv cpdv dk get def
dv cpddv ne {
/upd true def
exit
} if
} forall
} {
/upd true def
} ifelse
} ifelse
} if
} ifelse
upd true eq {
d k v put
} if
} if
} if
} forall
d length 0 gt {
d setpagedevice
} if
} bd
/RE { % /NewFontName [NewEncodingArray] /FontName RE -
  findfont dup length dict begin
  {
    1 index /FID ne
    {def} {pop pop} ifelse
  } forall
  /Encoding exch def
  /FontName 1 index def
  currentdict definefont pop
  end
} bind def
%%EndResource
%%BeginResource: procset (Apache XML Graphics EPS ProcSet) 1.0 0
%%Version: 1.0 0
%%Copyright: (Copyright 2002-2003 The Apache Software Foundation. License terms: http://www.apache.org/licenses/LICENSE-2.0)
/BeginEPSF { %def
/b4_Inc_state save def         % Save state for cleanup
/dict_count countdictstack def % Count objects on dict stack
/op_count count 1 sub def      % Count objects on operand stack
userdict begin                 % Push userdict on dict stack
/showpage { } def              % Redefine showpage, { } = null proc
0 setgray 0 setlinecap         % Prepare graphics state
1 setlinewidth 0 setlinejoin
10 setmiterlimit [ ] 0 setdash newpath
/languagelevel where           % If level not equal to 1 then
{pop languagelevel             % set strokeadjust and
1 ne                           % overprint to their defaults.
{false setstrokeadjust false setoverprint
} if
} if
} bd
/EndEPSF { %def
count op_count sub {pop} repeat            % Clean up stacks
countdictstack dict_count sub {end} repeat
b4_Inc_state restore
} bd
%%EndResource
%FOPBeginFontDict
%%IncludeResource: font Courier-Bold
%%IncludeResource: font Helvetica
%%IncludeResource: font Courier-BoldOblique
%%IncludeResource: font Courier-Oblique
%%IncludeResource: font Times-Roman
%%IncludeResource: font Helvetica-BoldOblique
%%IncludeResource: font Helvetica-Bold
%%IncludeResource: font Helvetica-Oblique
%%IncludeResource: font Times-BoldItalic
%%IncludeResource: font Courier
%%IncludeResource: font Times-Italic
%%IncludeResource: font Times-Bold
%%IncludeResource: font Symbol
%%IncludeResource: font ZapfDingbats
%FOPEndFontDict
%%BeginResource: encoding WinAnsiEncoding
/WinAnsiEncoding [
/.notdef /.notdef /.notdef /.notdef /.notdef
/.notdef /.notdef /.notdef /.notdef /.notdef
/.notdef /.notdef /.notdef /.notdef /.notdef
/.notdef /.notdef /.notdef /.notdef /.notdef
/.notdef /.notdef /.notdef /.notdef /.notdef
/.notdef /.notdef /.notdef /.notdef /.notdef
/.notdef /.notdef /space /exclam /quotedbl
/numbersign /dollar /percent /ampersand /quotesingle
/parenleft /parenright /asterisk /plus /comma
/hyphen /period /slash /zero /one
/two /three /four /five /six
/seven /eight /nine /colon /semicolon
/less /equal /greater /question /at
/A /B /C /D /E
/F /G /H /I /J
/K /L /M /N /O
/P /Q /R /S /T
/U /V /W /X /Y
/Z /bracketleft /backslash /bracketright /asciicircum
/underscore /quoteleft /a /b /c
/d /e /f /g /h
/i /j /k /l /m
/n /o /p /q /r
/s /t /u /v /w
/x /y /z /braceleft /bar
/braceright /asciitilde /bullet /Euro /bullet
/quotesinglbase /florin /quotedblbase /ellipsis /dagger
/daggerdbl /circumflex /perthousand /Scaron /guilsinglleft
/OE /bullet /Zcaron /bullet /bullet
/quoteleft /quoteright /quotedblleft /quotedblright /bullet
/endash /emdash /asciitilde /trademark /scaron
/guilsinglright /oe /bullet /zcaron /Ydieresis
/space /exclamdown /cent /sterling /currency
/yen /brokenbar /section /dieresis /copyright
/ordfeminine /guillemotleft /logicalnot /sfthyphen /registered
/macron /degree /plusminus /twosuperior /threesuperior
/acute /mu /paragraph /middot /cedilla
/onesuperior /ordmasculine /guillemotright /onequarter /onehalf
/threequarters /questiondown /Agrave /Aacute /Acircumflex
/Atilde /Adieresis /Aring /AE /Ccedilla
/Egrave /Eacute /Ecircumflex /Edieresis /Igrave
/Iacute /Icircumflex /Idieresis /Eth /Ntilde
/Ograve /Oacute /Ocircumflex /Otilde /Odieresis
/multiply /Oslash /Ugrave /Uacute /Ucircumflex
/Udieresis /Yacute /Thorn /germandbls /agrave
/aacute /acircumflex /atilde /adieresis /aring
/ae /ccedilla /egrave /eacute /ecircumflex
/edieresis /igrave /iacute /icircumflex /idieresis
/eth /ntilde /ograve /oacute /ocircumflex
/otilde /odieresis /divide /oslash /ugrave
/uacute /ucircumflex /udieresis /yacute /thorn
/ydieresis
] def
%%EndResource
%FOPBeginFontReencode
/Courier-Bold findfont
dup length dict begin
  {1 index /FID ne {def} {pop pop} ifelse} forall
  /Encoding WinAnsiEncoding def
  currentdict
end
/Courier-Bold exch definefont pop
/Helvetica findfont
dup length dict begin
  {1 index /FID ne {def} {pop pop} ifelse} forall
  /Encoding WinAnsiEncoding def
  currentdict
end
/Helvetica exch definefont pop
/Courier-BoldOblique findfont
dup length dict begin
  {1 index /FID ne {def} {pop pop} ifelse} forall
  /Encoding WinAnsiEncoding def
  currentdict
end
/Courier-BoldOblique exch definefont pop
/Courier-Oblique findfont
dup length dict begin
  {1 index /FID ne {def} {pop pop} ifelse} forall
  /Encoding WinAnsiEncoding def
  currentdict
end
/Courier-Oblique exch definefont pop
/Times-Roman findfont
dup length dict begin
  {1 index /FID ne {def} {pop pop} ifelse} forall
  /Encoding WinAnsiEncoding def
  currentdict
end
/Times-Roman exch definefont pop
/Helvetica-BoldOblique findfont
dup length dict begin
  {1 index /FID ne {def} {pop pop} ifelse} forall
  /Encoding WinAnsiEncoding def
  currentdict
end
/Helvetica-BoldOblique exch definefont pop
/Helvetica-Bold findfont
dup length dict begin
  {1 index /FID ne {def} {pop pop} ifelse} forall
  /Encoding WinAnsiEncoding def
  currentdict
end
/Helvetica-Bold exch definefont pop
/Helvetica-Oblique findfont
dup length dict begin
  {1 index /FID ne {def} {pop pop} ifelse} forall
  /Encoding WinAnsiEncoding def
  currentdict
end
/Helvetica-Oblique exch definefont pop
/Times-BoldItalic findfont
dup length dict begin
  {1 index /FID ne {def} {pop pop} ifelse} forall
  /Encoding WinAnsiEncoding def
  currentdict
end
/Times-BoldItalic exch definefont pop
/Courier findfont
dup length dict begin
  {1 index /FID ne {def} {pop pop} ifelse} forall
  /Encoding WinAnsiEncoding def
  currentdict
end
/Courier exch definefont pop
/Times-Italic findfont
dup length dict begin
  {1 index /FID ne {def} {pop pop} ifelse} forall
  /Encoding WinAnsiEncoding def
  currentdict
end
/Times-Italic exch definefont pop
/Times-Bold findfont
dup length dict begin
  {1 index /FID ne {def} {pop pop} ifelse} forall
  /Encoding WinAnsiEncoding def
  currentdict
end
/Times-Bold exch definefont pop
%FOPEndFontReencode
%%EndProlog
%%Page: 1 1
%%PageBoundingBox: 0 0 521 443
%%BeginPageSetup
[1 0 0 -1 0 443] CT
%%EndPageSetup
GS
[0.75 0 0 0.75 0 -0.25] CT
1 GC
N
0 0 694 591 re
f
GR
GS
[0.75 0 0 0.75 0 -0.25] CT
1 GC
N
0 0 694 591 re
f
GR
GS
[0.75 0 0 0.75 0 -0.25] CT
1 GC
N
90 526 M
628 526 L
628 44 L
90 44 L
cp
f
GR
GS
[0.75 0 0 0.75 0 -0.25] CT
0.149 GC
2 setlinecap
1 LJ
0.667 LW
N
90 526 M
628 526 L
S
GR
GS
[0.75 0 0 0.75 0 -0.25] CT
0.149 GC
2 setlinecap
1 LJ
0.667 LW
N
90 44 M
628 44 L
S
GR
GS
[0.75 0 0 0.75 0 -0.25] CT
0.149 GC
2 setlinecap
1 LJ
0.667 LW
N
90 526 M
90 520.62 L
S
GR
GS
[0.75 0 0 0.75 0 -0.25] CT
0.149 GC
2 setlinecap
1 LJ
0.667 LW
N
359 526 M
359 520.62 L
S
GR
GS
[0.75 0 0 0.75 0 -0.25] CT
0.149 GC
2 setlinecap
1 LJ
0.667 LW
N
628 526 M
628 520.62 L
S
GR
GS
[0.75 0 0 0.75 0 -0.25] CT
0.149 GC
2 setlinecap
1 LJ
0.667 LW
N
90 44 M
90 49.38 L
S
GR
GS
[0.75 0 0 0.75 0 -0.25] CT
0.149 GC
2 setlinecap
1 LJ
0.667 LW
N
359 44 M
359 49.38 L
S
GR
GS
[0.75 0 0 0.75 0 -0.25] CT
0.149 GC
2 setlinecap
1 LJ
0.667 LW
N
628 44 M
628 49.38 L
S
GR
GS
[0.75 0 0 0.75 0 -0.25] CT
0.149 GC
2 setlinecap
1 LJ
0.667 LW
N
90 526 M
90 523.31 L
S
GR
GS
[0.75 0 0 0.75 0 -0.25] CT
0.149 GC
2 setlinecap
1 LJ
0.667 LW
N
170.977 526 M
170.977 523.31 L
S
GR
GS
[0.75 0 0 0.75 0 -0.25] CT
0.149 GC
2 setlinecap
1 LJ
0.667 LW
N
218.346 526 M
218.346 523.31 L
S
GR
GS
[0.75 0 0 0.75 0 -0.25] CT
0.149 GC
2 setlinecap
1 LJ
0.667 LW
N
251.954 526 M
251.954 523.31 L
S
GR
GS
[0.75 0 0 0.75 0 -0.25] CT
0.149 GC
2 setlinecap
1 LJ
0.667 LW
N
278.023 526 M
278.023 523.31 L
S
GR
GS
[0.75 0 0 0.75 0 -0.25] CT
0.149 GC
2 setlinecap
1 LJ
0.667 LW
N
299.323 526 M
299.323 523.31 L
S
GR
GS
[0.75 0 0 0.75 0 -0.25] CT
0.149 GC
2 setlinecap
1 LJ
0.667 LW
N
317.331 526 M
317.331 523.31 L
S
GR
GS
[0.75 0 0 0.75 0 -0.25] CT
0.149 GC
2 setlinecap
1 LJ
0.667 LW
N
332.931 526 M
332.931 523.31 L
S
GR
GS
[0.75 0 0 0.75 0 -0.25] CT
0.149 GC
2 setlinecap
1 LJ
0.667 LW
N
346.691 526 M
346.691 523.31 L
S
GR
GS
[0.75 0 0 0.75 0 -0.25] CT
0.149 GC
2 setlinecap
1 LJ
0.667 LW
N
359 526 M
359 523.31 L
S
GR
GS
[0.75 0 0 0.75 0 -0.25] CT
0.149 GC
2 setlinecap
1 LJ
0.667 LW
N
439.977 526 M
439.977 523.31 L
S
GR
GS
[0.75 0 0 0.75 0 -0.25] CT
0.149 GC
2 setlinecap
1 LJ
0.667 LW
N
487.346 526 M
487.346 523.31 L
S
GR
GS
[0.75 0 0 0.75 0 -0.25] CT
0.149 GC
2 setlinecap
1 LJ
0.667 LW
N
520.954 526 M
520.954 523.31 L
S
GR
GS
[0.75 0 0 0.75 0 -0.25] CT
0.149 GC
2 setlinecap
1 LJ
0.667 LW
N
547.023 526 M
547.023 523.31 L
S
GR
GS
[0.75 0 0 0.75 0 -0.25] CT
0.149 GC
2 setlinecap
1 LJ
0.667 LW
N
568.323 526 M
568.323 523.31 L
S
GR
GS
[0.75 0 0 0.75 0 -0.25] CT
0.149 GC
2 setlinecap
1 LJ
0.667 LW
N
586.331 526 M
586.331 523.31 L
S
GR
GS
[0.75 0 0 0.75 0 -0.25] CT
0.149 GC
2 setlinecap
1 LJ
0.667 LW
N
601.931 526 M
601.931 523.31 L
S
GR
GS
[0.75 0 0 0.75 0 -0.25] CT
0.149 GC
2 setlinecap
1 LJ
0.667 LW
N
615.691 526 M
615.691 523.31 L
S
GR
GS
[0.75 0 0 0.75 0 -0.25] CT
0.149 GC
2 setlinecap
1 LJ
0.667 LW
N
628 526 M
628 523.31 L
S
GR
GS
[0.75 0 0 0.75 0 -0.25] CT
0.149 GC
2 setlinecap
1 LJ
0.667 LW
N
90 44 M
90 46.69 L
S
GR
GS
[0.75 0 0 0.75 0 -0.25] CT
0.149 GC
2 setlinecap
1 LJ
0.667 LW
N
170.977 44 M
170.977 46.69 L
S
GR
GS
[0.75 0 0 0.75 0 -0.25] CT
0.149 GC
2 setlinecap
1 LJ
0.667 LW
N
218.346 44 M
218.346 46.69 L
S
GR
GS
[0.75 0 0 0.75 0 -0.25] CT
0.149 GC
2 setlinecap
1 LJ
0.667 LW
N
251.954 44 M
251.954 46.69 L
S
GR
GS
[0.75 0 0 0.75 0 -0.25] CT
0.149 GC
2 setlinecap
1 LJ
0.667 LW
N
278.023 44 M
278.023 46.69 L
S
GR
GS
[0.75 0 0 0.75 0 -0.25] CT
0.149 GC
2 setlinecap
1 LJ
0.667 LW
N
299.323 44 M
299.323 46.69 L
S
GR
GS
[0.75 0 0 0.75 0 -0.25] CT
0.149 GC
2 setlinecap
1 LJ
0.667 LW
N
317.331 44 M
317.331 46.69 L
S
GR
GS
[0.75 0 0 0.75 0 -0.25] CT
0.149 GC
2 setlinecap
1 LJ
0.667 LW
N
332.931 44 M
332.931 46.69 L
S
GR
GS
[0.75 0 0 0.75 0 -0.25] CT
0.149 GC
2 setlinecap
1 LJ
0.667 LW
N
346.691 44 M
346.691 46.69 L
S
GR
GS
[0.75 0 0 0.75 0 -0.25] CT
0.149 GC
2 setlinecap
1 LJ
0.667 LW
N
359 44 M
359 46.69 L
S
GR
GS
[0.75 0 0 0.75 0 -0.25] CT
0.149 GC
2 setlinecap
1 LJ
0.667 LW
N
439.977 44 M
439.977 46.69 L
S
GR
GS
[0.75 0 0 0.75 0 -0.25] CT
0.149 GC
2 setlinecap
1 LJ
0.667 LW
N
487.346 44 M
487.346 46.69 L
S
GR
GS
[0.75 0 0 0.75 0 -0.25] CT
0.149 GC
2 setlinecap
1 LJ
0.667 LW
N
520.954 44 M
520.954 46.69 L
S
GR
GS
[0.75 0 0 0.75 0 -0.25] CT
0.149 GC
2 setlinecap
1 LJ
0.667 LW
N
547.023 44 M
547.023 46.69 L
S
GR
GS
[0.75 0 0 0.75 0 -0.25] CT
0.149 GC
2 setlinecap
1 LJ
0.667 LW
N
568.323 44 M
568.323 46.69 L
S
GR
GS
[0.75 0 0 0.75 0 -0.25] CT
0.149 GC
2 setlinecap
1 LJ
0.667 LW
N
586.331 44 M
586.331 46.69 L
S
GR
GS
[0.75 0 0 0.75 0 -0.25] CT
0.149 GC
2 setlinecap
1 LJ
0.667 LW
N
601.931 44 M
601.931 46.69 L
S
GR
GS
[0.75 0 0 0.75 0 -0.25] CT
0.149 GC
2 setlinecap
1 LJ
0.667 LW
N
615.691 44 M
615.691 46.69 L
S
GR
GS
[0.75 0 0 0.75 0 -0.25] CT
0.149 GC
2 setlinecap
1 LJ
0.667 LW
N
628 44 M
628 46.69 L
S
GR
GS
[0.75 0 0 0.75 57.75 411.5] CT
0.149 GC
/Helvetica 13.333 F
GS
[1 0 0 1 0 0] CT
0 0 moveto 
1 -1 scale
(10) t 
GR
GR
GS
[0.75 0 0 0.75 69 407] CT
0.149 GC
/Helvetica 10.667 F
GS
[1 0 0 1 0 0] CT
0 0 moveto 
1 -1 scale
(-3) t 
GR
GR
GS
[0.75 0 0 0.75 259.5 411.5] CT
0.149 GC
/Helvetica 13.333 F
GS
[1 0 0 1 0 0] CT
0 0 moveto 
1 -1 scale
(10) t 
GR
GR
GS
[0.75 0 0 0.75 270.75 407] CT
0.149 GC
/Helvetica 10.667 F
GS
[1 0 0 1 0 0] CT
0 0 moveto 
1 -1 scale
(-2) t 
GR
GR
GS
[0.75 0 0 0.75 461.25 411.5] CT
0.149 GC
/Helvetica 13.333 F
GS
[1 0 0 1 0 0] CT
0 0 moveto 
1 -1 scale
(10) t 
GR
GR
GS
[0.75 0 0 0.75 472.5 407] CT
0.149 GC
/Helvetica 10.667 F
GS
[1 0 0 1 0 0] CT
0 0 moveto 
1 -1 scale
(-1) t 
GR
GR
GS
[0.75 0 0 0.75 269.25018 415.00002] CT
0.149 GC
/Helvetica 14.667 F
GS
[1 0 0 1 0 0] CT
-8 16 moveto 
1 -1 scale
(dx) t 
GR
GR
GS
[0.75 0 0 0.75 0 -0.25] CT
0.149 GC
2 setlinecap
1 LJ
0.667 LW
N
90 526 M
90 44 L
S
GR
GS
[0.75 0 0 0.75 0 -0.25] CT
0.149 GC
2 setlinecap
1 LJ
0.667 LW
N
628 526 M
628 44 L
S
GR
GS
[0.75 0 0 0.75 0 -0.25] CT
0.149 GC
2 setlinecap
1 LJ
0.667 LW
N
90 526 M
95.38 526 L
S
GR
GS
[0.75 0 0 0.75 0 -0.25] CT
0.149 GC
2 setlinecap
1 LJ
0.667 LW
N
90 285 M
95.38 285 L
S
GR
GS
[0.75 0 0 0.75 0 -0.25] CT
0.149 GC
2 setlinecap
1 LJ
0.667 LW
N
90 44 M
95.38 44 L
S
GR
GS
[0.75 0 0 0.75 0 -0.25] CT
0.149 GC
2 setlinecap
1 LJ
0.667 LW
N
628 526 M
622.62 526 L
S
GR
GS
[0.75 0 0 0.75 0 -0.25] CT
0.149 GC
2 setlinecap
1 LJ
0.667 LW
N
628 285 M
622.62 285 L
S
GR
GS
[0.75 0 0 0.75 0 -0.25] CT
0.149 GC
2 setlinecap
1 LJ
0.667 LW
N
628 44 M
622.62 44 L
S
GR
GS
[0.75 0 0 0.75 0 -0.25] CT
0.149 GC
2 setlinecap
1 LJ
0.667 LW
N
90 526 M
92.69 526 L
S
GR
GS
[0.75 0 0 0.75 0 -0.25] CT
0.149 GC
2 setlinecap
1 LJ
0.667 LW
N
90 453.452 M
92.69 453.452 L
S
GR
GS
[0.75 0 0 0.75 0 -0.25] CT
0.149 GC
2 setlinecap
1 LJ
0.667 LW
N
90 411.014 M
92.69 411.014 L
S
GR
GS
[0.75 0 0 0.75 0 -0.25] CT
0.149 GC
2 setlinecap
1 LJ
0.667 LW
N
90 380.904 M
92.69 380.904 L
S
GR
GS
[0.75 0 0 0.75 0 -0.25] CT
0.149 GC
2 setlinecap
1 LJ
0.667 LW
N
90 357.548 M
92.69 357.548 L
S
GR
GS
[0.75 0 0 0.75 0 -0.25] CT
0.149 GC
2 setlinecap
1 LJ
0.667 LW
N
90 338.466 M
92.69 338.466 L
S
GR
GS
[0.75 0 0 0.75 0 -0.25] CT
0.149 GC
2 setlinecap
1 LJ
0.667 LW
N
90 322.331 M
92.69 322.331 L
S
GR
GS
[0.75 0 0 0.75 0 -0.25] CT
0.149 GC
2 setlinecap
1 LJ
0.667 LW
N
90 308.355 M
92.69 308.355 L
S
GR
GS
[0.75 0 0 0.75 0 -0.25] CT
0.149 GC
2 setlinecap
1 LJ
0.667 LW
N
90 296.028 M
92.69 296.028 L
S
GR
GS
[0.75 0 0 0.75 0 -0.25] CT
0.149 GC
2 setlinecap
1 LJ
0.667 LW
N
90 285 M
92.69 285 L
S
GR
GS
[0.75 0 0 0.75 0 -0.25] CT
0.149 GC
2 setlinecap
1 LJ
0.667 LW
N
90 212.452 M
92.69 212.452 L
S
GR
GS
[0.75 0 0 0.75 0 -0.25] CT
0.149 GC
2 setlinecap
1 LJ
0.667 LW
N
90 170.014 M
92.69 170.014 L
S
GR
GS
[0.75 0 0 0.75 0 -0.25] CT
0.149 GC
2 setlinecap
1 LJ
0.667 LW
N
90 139.904 M
92.69 139.904 L
S
GR
GS
[0.75 0 0 0.75 0 -0.25] CT
0.149 GC
2 setlinecap
1 LJ
0.667 LW
N
90 116.548 M
92.69 116.548 L
S
GR
GS
[0.75 0 0 0.75 0 -0.25] CT
0.149 GC
2 setlinecap
1 LJ
0.667 LW
N
90 97.466 M
92.69 97.466 L
S
GR
GS
[0.75 0 0 0.75 0 -0.25] CT
0.149 GC
2 setlinecap
1 LJ
0.667 LW
N
90 81.331 M
92.69 81.331 L
S
GR
GS
[0.75 0 0 0.75 0 -0.25] CT
0.149 GC
2 setlinecap
1 LJ
0.667 LW
N
90 67.355 M
92.69 67.355 L
S
GR
GS
[0.75 0 0 0.75 0 -0.25] CT
0.149 GC
2 setlinecap
1 LJ
0.667 LW
N
90 55.028 M
92.69 55.028 L
S
GR
GS
[0.75 0 0 0.75 0 -0.25] CT
0.149 GC
2 setlinecap
1 LJ
0.667 LW
N
90 44 M
92.69 44 L
S
GR
GS
[0.75 0 0 0.75 0 -0.25] CT
0.149 GC
2 setlinecap
1 LJ
0.667 LW
N
628 526 M
625.31 526 L
S
GR
GS
[0.75 0 0 0.75 0 -0.25] CT
0.149 GC
2 setlinecap
1 LJ
0.667 LW
N
628 453.452 M
625.31 453.452 L
S
GR
GS
[0.75 0 0 0.75 0 -0.25] CT
0.149 GC
2 setlinecap
1 LJ
0.667 LW
N
628 411.014 M
625.31 411.014 L
S
GR
GS
[0.75 0 0 0.75 0 -0.25] CT
0.149 GC
2 setlinecap
1 LJ
0.667 LW
N
628 380.904 M
625.31 380.904 L
S
GR
GS
[0.75 0 0 0.75 0 -0.25] CT
0.149 GC
2 setlinecap
1 LJ
0.667 LW
N
628 357.548 M
625.31 357.548 L
S
GR
GS
[0.75 0 0 0.75 0 -0.25] CT
0.149 GC
2 setlinecap
1 LJ
0.667 LW
N
628 338.466 M
625.31 338.466 L
S
GR
GS
[0.75 0 0 0.75 0 -0.25] CT
0.149 GC
2 setlinecap
1 LJ
0.667 LW
N
628 322.331 M
625.31 322.331 L
S
GR
GS
[0.75 0 0 0.75 0 -0.25] CT
0.149 GC
2 setlinecap
1 LJ
0.667 LW
N
628 308.355 M
625.31 308.355 L
S
GR
GS
[0.75 0 0 0.75 0 -0.25] CT
0.149 GC
2 setlinecap
1 LJ
0.667 LW
N
628 296.028 M
625.31 296.028 L
S
GR
GS
[0.75 0 0 0.75 0 -0.25] CT
0.149 GC
2 setlinecap
1 LJ
0.667 LW
N
628 285 M
625.31 285 L
S
GR
GS
[0.75 0 0 0.75 0 -0.25] CT
0.149 GC
2 setlinecap
1 LJ
0.667 LW
N
628 212.452 M
625.31 212.452 L
S
GR
GS
[0.75 0 0 0.75 0 -0.25] CT
0.149 GC
2 setlinecap
1 LJ
0.667 LW
N
628 170.014 M
625.31 170.014 L
S
GR
GS
[0.75 0 0 0.75 0 -0.25] CT
0.149 GC
2 setlinecap
1 LJ
0.667 LW
N
628 139.904 M
625.31 139.904 L
S
GR
GS
[0.75 0 0 0.75 0 -0.25] CT
0.149 GC
2 setlinecap
1 LJ
0.667 LW
N
628 116.548 M
625.31 116.548 L
S
GR
GS
[0.75 0 0 0.75 0 -0.25] CT
0.149 GC
2 setlinecap
1 LJ
0.667 LW
N
628 97.466 M
625.31 97.466 L
S
GR
GS
[0.75 0 0 0.75 0 -0.25] CT
0.149 GC
2 setlinecap
1 LJ
0.667 LW
N
628 81.331 M
625.31 81.331 L
S
GR
GS
[0.75 0 0 0.75 0 -0.25] CT
0.149 GC
2 setlinecap
1 LJ
0.667 LW
N
628 67.355 M
625.31 67.355 L
S
GR
GS
[0.75 0 0 0.75 0 -0.25] CT
0.149 GC
2 setlinecap
1 LJ
0.667 LW
N
628 55.028 M
625.31 55.028 L
S
GR
GS
[0.75 0 0 0.75 0 -0.25] CT
0.149 GC
2 setlinecap
1 LJ
0.667 LW
N
628 44 M
625.31 44 L
S
GR
GS
[0.75 0 0 0.75 45 400.25] CT
0.149 GC
/Helvetica 13.333 F
GS
[1 0 0 1 0 0] CT
0 0 moveto 
1 -1 scale
(10) t 
GR
GR
GS
[0.75 0 0 0.75 56.25 395.75] CT
0.149 GC
/Helvetica 10.667 F
GS
[1 0 0 1 0 0] CT
0 0 moveto 
1 -1 scale
(-2) t 
GR
GR
GS
[0.75 0 0 0.75 45 219.5] CT
0.149 GC
/Helvetica 13.333 F
GS
[1 0 0 1 0 0] CT
0 0 moveto 
1 -1 scale
(10) t 
GR
GR
GS
[0.75 0 0 0.75 56.25 215] CT
0.149 GC
/Helvetica 10.667 F
GS
[1 0 0 1 0 0] CT
0 0 moveto 
1 -1 scale
(-1) t 
GR
GR
GS
[0.75 0 0 0.75 47.25 38.75] CT
0.149 GC
/Helvetica 13.333 F
GS
[1 0 0 1 0 0] CT
0 0 moveto 
1 -1 scale
(10) t 
GR
GR
GS
[0.75 0 0 0.75 58.5 34.25] CT
0.149 GC
/Helvetica 10.667 F
GS
[1 0 0 1 0 0] CT
0 0 moveto 
1 -1 scale
(0) t 
GR
GR
GS
[0 -0.75 0.75 0 41.75 213.49982] CT
0.149 GC
/Helvetica 14.667 F
GS
[1 0 0 1 0 0] CT
-19.5 -4 moveto 
1 -1 scale
(Emax) t 
GR
GR
GS
[0.75 0 0 0.75 0 -0.25] CT
0 0.447 0.741 RC
1 LJ
0.667 LW
N
628 312.011 M
547.023 341.682 L
466.046 374.104 L
385.069 408.453 L
304.092 443.732 L
223.115 479.509 L
S
GR
GS
[0.75 0 0 0.75 0 -0.25] CT
0.851 0.325 0.098 RC
1 LJ
0.667 LW
N
628 164.5 M
359 285 L
90 405.5 L
S
GR
GS
[0.75 0 0 0.75 0 -0.25] CT
1 GC
N
493 94 M
493 57 L
615 57 L
615 94 L
cp
f
GR
GS
[0.75 0 0 0.75 397.5 50.10274] CT
/Helvetica 12 F
GS
[1 0 0 1 0 0] CT
0 5 moveto 
1 -1 scale
(Maximum error) t 
GR
GR
GS
[0.75 0 0 0.75 0 -0.25] CT
0 0.447 0.741 RC
1 LJ
0.667 LW
N
497 67.137 M
527 67.137 L
S
GR
GS
[0.75 0 0 0.75 397.5 62.64726] CT
/Helvetica 12 F
GS
[1 0 0 1 0 0] CT
0 5 moveto 
1 -1 scale
(Order 0.5) t 
GR
GR
GS
[0.75 0 0 0.75 0 -0.25] CT
0.851 0.325 0.098 RC
1 LJ
0.667 LW
N
497 83.863 M
527 83.863 L
S
GR
GS
[0.75 0 0 0.75 0 -0.25] CT
0.149 GC
10.0 ML
0.667 LW
N
493 94 M
493 57 L
615 57 L
615 94 L
cp
S
GR
%%Trailer
%%Pages: 1
%%EOF
