%!PS-Adobe-3.0 EPSF-3.0
%%Creator: (MATLAB, The Mathworks, Inc. Version 9.1.0.441655 \(R2016b\). Operating System: Windows 8)
%%Title: C:/Users/simon/Documents/Unief/M1/Numerieke_simulatie_van_differentiaal_vergelijkingen/PDE/Homework_2/Verslag/waveconv.eps
%%CreationDate: 2016-12-14T12:50:29
%%Pages: (atend)
%%BoundingBox: 0 0 1152 527
%%LanguageLevel: 3
%%EndComments
%%BeginProlog
%%BeginResource: procset (Apache XML Graphics Std ProcSet) 1.2 0
%%Version: 1.2 0
%%Copyright: (Copyright 2001-2003,2010 The Apache Software Foundation. License terms: http://www.apache.org/licenses/LICENSE-2.0)
/bd{bind def}bind def
/ld{load def}bd
/GR/grestore ld
/M/moveto ld
/LJ/setlinejoin ld
/C/curveto ld
/f/fill ld
/LW/setlinewidth ld
/GC/setgray ld
/t/show ld
/N/newpath ld
/CT/concat ld
/cp/closepath ld
/S/stroke ld
/L/lineto ld
/CC/setcmykcolor ld
/A/ashow ld
/GS/gsave ld
/RC/setrgbcolor ld
/RM/rmoveto ld
/ML/setmiterlimit ld
/re {4 2 roll M
1 index 0 rlineto
0 exch rlineto
neg 0 rlineto
cp } bd
/_ctm matrix def
/_tm matrix def
/BT { _ctm currentmatrix pop matrix _tm copy pop 0 0 moveto } bd
/ET { _ctm setmatrix } bd
/iTm { _ctm setmatrix _tm concat } bd
/Tm { _tm astore pop iTm 0 0 moveto } bd
/ux 0.0 def
/uy 0.0 def
/F {
  /Tp exch def
  /Tf exch def
  Tf findfont Tp scalefont setfont
  /cf Tf def  /cs Tp def
} bd
/ULS {currentpoint /uy exch def /ux exch def} bd
/ULE {
  /Tcx currentpoint pop def
  gsave
  newpath
  cf findfont cs scalefont dup
  /FontMatrix get 0 get /Ts exch def /FontInfo get dup
  /UnderlinePosition get Ts mul /To exch def
  /UnderlineThickness get Ts mul /Tt exch def
  ux uy To add moveto  Tcx uy To add lineto
  Tt setlinewidth stroke
  grestore
} bd
/OLE {
  /Tcx currentpoint pop def
  gsave
  newpath
  cf findfont cs scalefont dup
  /FontMatrix get 0 get /Ts exch def /FontInfo get dup
  /UnderlinePosition get Ts mul /To exch def
  /UnderlineThickness get Ts mul /Tt exch def
  ux uy To add cs add moveto Tcx uy To add cs add lineto
  Tt setlinewidth stroke
  grestore
} bd
/SOE {
  /Tcx currentpoint pop def
  gsave
  newpath
  cf findfont cs scalefont dup
  /FontMatrix get 0 get /Ts exch def /FontInfo get dup
  /UnderlinePosition get Ts mul /To exch def
  /UnderlineThickness get Ts mul /Tt exch def
  ux uy To add cs 10 mul 26 idiv add moveto Tcx uy To add cs 10 mul 26 idiv add lineto
  Tt setlinewidth stroke
  grestore
} bd
/QT {
/Y22 exch store
/X22 exch store
/Y21 exch store
/X21 exch store
currentpoint
/Y21 load 2 mul add 3 div exch
/X21 load 2 mul add 3 div exch
/X21 load 2 mul /X22 load add 3 div
/Y21 load 2 mul /Y22 load add 3 div
/X22 load /Y22 load curveto
} bd
/SSPD {
dup length /d exch dict def
{
/v exch def
/k exch def
currentpagedevice k known {
/cpdv currentpagedevice k get def
v cpdv ne {
/upd false def
/nullv v type /nulltype eq def
/nullcpdv cpdv type /nulltype eq def
nullv nullcpdv or
{
/upd true def
} {
/sametype v type cpdv type eq def
sametype {
v type /arraytype eq {
/vlen v length def
/cpdvlen cpdv length def
vlen cpdvlen eq {
0 1 vlen 1 sub {
/i exch def
/obj v i get def
/cpdobj cpdv i get def
obj cpdobj ne {
/upd true def
exit
} if
} for
} {
/upd true def
} ifelse
} {
v type /dicttype eq {
v {
/dv exch def
/dk exch def
/cpddv cpdv dk get def
dv cpddv ne {
/upd true def
exit
} if
} forall
} {
/upd true def
} ifelse
} ifelse
} if
} ifelse
upd true eq {
d k v put
} if
} if
} if
} forall
d length 0 gt {
d setpagedevice
} if
} bd
/RE { % /NewFontName [NewEncodingArray] /FontName RE -
  findfont dup length dict begin
  {
    1 index /FID ne
    {def} {pop pop} ifelse
  } forall
  /Encoding exch def
  /FontName 1 index def
  currentdict definefont pop
  end
} bind def
%%EndResource
%%BeginResource: procset (Apache XML Graphics EPS ProcSet) 1.0 0
%%Version: 1.0 0
%%Copyright: (Copyright 2002-2003 The Apache Software Foundation. License terms: http://www.apache.org/licenses/LICENSE-2.0)
/BeginEPSF { %def
/b4_Inc_state save def         % Save state for cleanup
/dict_count countdictstack def % Count objects on dict stack
/op_count count 1 sub def      % Count objects on operand stack
userdict begin                 % Push userdict on dict stack
/showpage { } def              % Redefine showpage, { } = null proc
0 setgray 0 setlinecap         % Prepare graphics state
1 setlinewidth 0 setlinejoin
10 setmiterlimit [ ] 0 setdash newpath
/languagelevel where           % If level not equal to 1 then
{pop languagelevel             % set strokeadjust and
1 ne                           % overprint to their defaults.
{false setstrokeadjust false setoverprint
} if
} if
} bd
/EndEPSF { %def
count op_count sub {pop} repeat            % Clean up stacks
countdictstack dict_count sub {end} repeat
b4_Inc_state restore
} bd
%%EndResource
%FOPBeginFontDict
%%IncludeResource: font Courier-Bold
%%IncludeResource: font Helvetica
%%IncludeResource: font Courier-BoldOblique
%%IncludeResource: font Courier-Oblique
%%IncludeResource: font Times-Roman
%%IncludeResource: font Helvetica-BoldOblique
%%IncludeResource: font Helvetica-Bold
%%IncludeResource: font Helvetica-Oblique
%%IncludeResource: font Times-BoldItalic
%%IncludeResource: font Courier
%%IncludeResource: font Times-Italic
%%IncludeResource: font Times-Bold
%%IncludeResource: font Symbol
%%IncludeResource: font ZapfDingbats
%FOPEndFontDict
%%BeginResource: encoding WinAnsiEncoding
/WinAnsiEncoding [
/.notdef /.notdef /.notdef /.notdef /.notdef
/.notdef /.notdef /.notdef /.notdef /.notdef
/.notdef /.notdef /.notdef /.notdef /.notdef
/.notdef /.notdef /.notdef /.notdef /.notdef
/.notdef /.notdef /.notdef /.notdef /.notdef
/.notdef /.notdef /.notdef /.notdef /.notdef
/.notdef /.notdef /space /exclam /quotedbl
/numbersign /dollar /percent /ampersand /quotesingle
/parenleft /parenright /asterisk /plus /comma
/hyphen /period /slash /zero /one
/two /three /four /five /six
/seven /eight /nine /colon /semicolon
/less /equal /greater /question /at
/A /B /C /D /E
/F /G /H /I /J
/K /L /M /N /O
/P /Q /R /S /T
/U /V /W /X /Y
/Z /bracketleft /backslash /bracketright /asciicircum
/underscore /quoteleft /a /b /c
/d /e /f /g /h
/i /j /k /l /m
/n /o /p /q /r
/s /t /u /v /w
/x /y /z /braceleft /bar
/braceright /asciitilde /bullet /Euro /bullet
/quotesinglbase /florin /quotedblbase /ellipsis /dagger
/daggerdbl /circumflex /perthousand /Scaron /guilsinglleft
/OE /bullet /Zcaron /bullet /bullet
/quoteleft /quoteright /quotedblleft /quotedblright /bullet
/endash /emdash /asciitilde /trademark /scaron
/guilsinglright /oe /bullet /zcaron /Ydieresis
/space /exclamdown /cent /sterling /currency
/yen /brokenbar /section /dieresis /copyright
/ordfeminine /guillemotleft /logicalnot /sfthyphen /registered
/macron /degree /plusminus /twosuperior /threesuperior
/acute /mu /paragraph /middot /cedilla
/onesuperior /ordmasculine /guillemotright /onequarter /onehalf
/threequarters /questiondown /Agrave /Aacute /Acircumflex
/Atilde /Adieresis /Aring /AE /Ccedilla
/Egrave /Eacute /Ecircumflex /Edieresis /Igrave
/Iacute /Icircumflex /Idieresis /Eth /Ntilde
/Ograve /Oacute /Ocircumflex /Otilde /Odieresis
/multiply /Oslash /Ugrave /Uacute /Ucircumflex
/Udieresis /Yacute /Thorn /germandbls /agrave
/aacute /acircumflex /atilde /adieresis /aring
/ae /ccedilla /egrave /eacute /ecircumflex
/edieresis /igrave /iacute /icircumflex /idieresis
/eth /ntilde /ograve /oacute /ocircumflex
/otilde /odieresis /divide /oslash /ugrave
/uacute /ucircumflex /udieresis /yacute /thorn
/ydieresis
] def
%%EndResource
%FOPBeginFontReencode
/Courier-Bold findfont
dup length dict begin
  {1 index /FID ne {def} {pop pop} ifelse} forall
  /Encoding WinAnsiEncoding def
  currentdict
end
/Courier-Bold exch definefont pop
/Helvetica findfont
dup length dict begin
  {1 index /FID ne {def} {pop pop} ifelse} forall
  /Encoding WinAnsiEncoding def
  currentdict
end
/Helvetica exch definefont pop
/Courier-BoldOblique findfont
dup length dict begin
  {1 index /FID ne {def} {pop pop} ifelse} forall
  /Encoding WinAnsiEncoding def
  currentdict
end
/Courier-BoldOblique exch definefont pop
/Courier-Oblique findfont
dup length dict begin
  {1 index /FID ne {def} {pop pop} ifelse} forall
  /Encoding WinAnsiEncoding def
  currentdict
end
/Courier-Oblique exch definefont pop
/Times-Roman findfont
dup length dict begin
  {1 index /FID ne {def} {pop pop} ifelse} forall
  /Encoding WinAnsiEncoding def
  currentdict
end
/Times-Roman exch definefont pop
/Helvetica-BoldOblique findfont
dup length dict begin
  {1 index /FID ne {def} {pop pop} ifelse} forall
  /Encoding WinAnsiEncoding def
  currentdict
end
/Helvetica-BoldOblique exch definefont pop
/Helvetica-Bold findfont
dup length dict begin
  {1 index /FID ne {def} {pop pop} ifelse} forall
  /Encoding WinAnsiEncoding def
  currentdict
end
/Helvetica-Bold exch definefont pop
/Helvetica-Oblique findfont
dup length dict begin
  {1 index /FID ne {def} {pop pop} ifelse} forall
  /Encoding WinAnsiEncoding def
  currentdict
end
/Helvetica-Oblique exch definefont pop
/Times-BoldItalic findfont
dup length dict begin
  {1 index /FID ne {def} {pop pop} ifelse} forall
  /Encoding WinAnsiEncoding def
  currentdict
end
/Times-BoldItalic exch definefont pop
/Courier findfont
dup length dict begin
  {1 index /FID ne {def} {pop pop} ifelse} forall
  /Encoding WinAnsiEncoding def
  currentdict
end
/Courier exch definefont pop
/Times-Italic findfont
dup length dict begin
  {1 index /FID ne {def} {pop pop} ifelse} forall
  /Encoding WinAnsiEncoding def
  currentdict
end
/Times-Italic exch definefont pop
/Times-Bold findfont
dup length dict begin
  {1 index /FID ne {def} {pop pop} ifelse} forall
  /Encoding WinAnsiEncoding def
  currentdict
end
/Times-Bold exch definefont pop
%FOPEndFontReencode
%%EndProlog
%%Page: 1 1
%%PageBoundingBox: 0 0 1152 527
%%BeginPageSetup
[1 0 0 -1 0 527] CT
%%EndPageSetup
GS
[0.6 0 0 0.60068 0 -0.39996] CT
1 GC
N
0 0 1920 878 re
f
GR
GS
[0.6 0 0 0.60068 0 -0.39996] CT
1 GC
N
0 0 1920 878 re
f
GR
GS
[0.6 0 0 0.60068 0 -0.39996] CT
1 GC
N
250 782 M
1738 782 L
1738 66 L
250 66 L
cp
f
GR
GS
[0.6 0 0 0.60068 0 -0.39996] CT
0.149 GC
2 setlinecap
1 LJ
0.833 LW
N
250 782 M
1738 782 L
S
GR
GS
[0.6 0 0 0.60068 0 -0.39996] CT
0.149 GC
2 setlinecap
1 LJ
0.833 LW
N
250 66 M
1738 66 L
S
GR
GS
[0.6 0 0 0.60068 0 -0.39996] CT
0.149 GC
2 setlinecap
1 LJ
0.833 LW
N
318.769 782 M
318.769 767.12 L
S
GR
GS
[0.6 0 0 0.60068 0 -0.39996] CT
0.149 GC
2 setlinecap
1 LJ
0.833 LW
N
1028.384 782 M
1028.384 767.12 L
S
GR
GS
[0.6 0 0 0.60068 0 -0.39996] CT
0.149 GC
2 setlinecap
1 LJ
0.833 LW
N
1738 782 M
1738 767.12 L
S
GR
GS
[0.6 0 0 0.60068 0 -0.39996] CT
0.149 GC
2 setlinecap
1 LJ
0.833 LW
N
318.769 66 M
318.769 80.88 L
S
GR
GS
[0.6 0 0 0.60068 0 -0.39996] CT
0.149 GC
2 setlinecap
1 LJ
0.833 LW
N
1028.384 66 M
1028.384 80.88 L
S
GR
GS
[0.6 0 0 0.60068 0 -0.39996] CT
0.149 GC
2 setlinecap
1 LJ
0.833 LW
N
1738 66 M
1738 80.88 L
S
GR
GS
[0.6 0 0 0.60068 0 -0.39996] CT
0.149 GC
2 setlinecap
1 LJ
0.833 LW
N
250 782 M
250 774.56 L
S
GR
GS
[0.6 0 0 0.60068 0 -0.39996] CT
0.149 GC
2 setlinecap
1 LJ
0.833 LW
N
286.299 782 M
286.299 774.56 L
S
GR
GS
[0.6 0 0 0.60068 0 -0.39996] CT
0.149 GC
2 setlinecap
1 LJ
0.833 LW
N
318.769 782 M
318.769 774.56 L
S
GR
GS
[0.6 0 0 0.60068 0 -0.39996] CT
0.149 GC
2 setlinecap
1 LJ
0.833 LW
N
532.384 782 M
532.384 774.56 L
S
GR
GS
[0.6 0 0 0.60068 0 -0.39996] CT
0.149 GC
2 setlinecap
1 LJ
0.833 LW
N
657.341 782 M
657.341 774.56 L
S
GR
GS
[0.6 0 0 0.60068 0 -0.39996] CT
0.149 GC
2 setlinecap
1 LJ
0.833 LW
N
746 782 M
746 774.56 L
S
GR
GS
[0.6 0 0 0.60068 0 -0.39996] CT
0.149 GC
2 setlinecap
1 LJ
0.833 LW
N
814.769 782 M
814.769 774.56 L
S
GR
GS
[0.6 0 0 0.60068 0 -0.39996] CT
0.149 GC
2 setlinecap
1 LJ
0.833 LW
N
870.957 782 M
870.957 774.56 L
S
GR
GS
[0.6 0 0 0.60068 0 -0.39996] CT
0.149 GC
2 setlinecap
1 LJ
0.833 LW
N
918.464 782 M
918.464 774.56 L
S
GR
GS
[0.6 0 0 0.60068 0 -0.39996] CT
0.149 GC
2 setlinecap
1 LJ
0.833 LW
N
959.616 782 M
959.616 774.56 L
S
GR
GS
[0.6 0 0 0.60068 0 -0.39996] CT
0.149 GC
2 setlinecap
1 LJ
0.833 LW
N
995.914 782 M
995.914 774.56 L
S
GR
GS
[0.6 0 0 0.60068 0 -0.39996] CT
0.149 GC
2 setlinecap
1 LJ
0.833 LW
N
1028.384 782 M
1028.384 774.56 L
S
GR
GS
[0.6 0 0 0.60068 0 -0.39996] CT
0.149 GC
2 setlinecap
1 LJ
0.833 LW
N
1242 782 M
1242 774.56 L
S
GR
GS
[0.6 0 0 0.60068 0 -0.39996] CT
0.149 GC
2 setlinecap
1 LJ
0.833 LW
N
1366.957 782 M
1366.957 774.56 L
S
GR
GS
[0.6 0 0 0.60068 0 -0.39996] CT
0.149 GC
2 setlinecap
1 LJ
0.833 LW
N
1455.616 782 M
1455.616 774.56 L
S
GR
GS
[0.6 0 0 0.60068 0 -0.39996] CT
0.149 GC
2 setlinecap
1 LJ
0.833 LW
N
1524.384 782 M
1524.384 774.56 L
S
GR
GS
[0.6 0 0 0.60068 0 -0.39996] CT
0.149 GC
2 setlinecap
1 LJ
0.833 LW
N
1580.573 782 M
1580.573 774.56 L
S
GR
GS
[0.6 0 0 0.60068 0 -0.39996] CT
0.149 GC
2 setlinecap
1 LJ
0.833 LW
N
1628.079 782 M
1628.079 774.56 L
S
GR
GS
[0.6 0 0 0.60068 0 -0.39996] CT
0.149 GC
2 setlinecap
1 LJ
0.833 LW
N
1669.231 782 M
1669.231 774.56 L
S
GR
GS
[0.6 0 0 0.60068 0 -0.39996] CT
0.149 GC
2 setlinecap
1 LJ
0.833 LW
N
1705.53 782 M
1705.53 774.56 L
S
GR
GS
[0.6 0 0 0.60068 0 -0.39996] CT
0.149 GC
2 setlinecap
1 LJ
0.833 LW
N
1738 782 M
1738 774.56 L
S
GR
GS
[0.6 0 0 0.60068 0 -0.39996] CT
0.149 GC
2 setlinecap
1 LJ
0.833 LW
N
250 66 M
250 73.44 L
S
GR
GS
[0.6 0 0 0.60068 0 -0.39996] CT
0.149 GC
2 setlinecap
1 LJ
0.833 LW
N
286.299 66 M
286.299 73.44 L
S
GR
GS
[0.6 0 0 0.60068 0 -0.39996] CT
0.149 GC
2 setlinecap
1 LJ
0.833 LW
N
318.769 66 M
318.769 73.44 L
S
GR
GS
[0.6 0 0 0.60068 0 -0.39996] CT
0.149 GC
2 setlinecap
1 LJ
0.833 LW
N
532.384 66 M
532.384 73.44 L
S
GR
GS
[0.6 0 0 0.60068 0 -0.39996] CT
0.149 GC
2 setlinecap
1 LJ
0.833 LW
N
657.341 66 M
657.341 73.44 L
S
GR
GS
[0.6 0 0 0.60068 0 -0.39996] CT
0.149 GC
2 setlinecap
1 LJ
0.833 LW
N
746 66 M
746 73.44 L
S
GR
GS
[0.6 0 0 0.60068 0 -0.39996] CT
0.149 GC
2 setlinecap
1 LJ
0.833 LW
N
814.769 66 M
814.769 73.44 L
S
GR
GS
[0.6 0 0 0.60068 0 -0.39996] CT
0.149 GC
2 setlinecap
1 LJ
0.833 LW
N
870.957 66 M
870.957 73.44 L
S
GR
GS
[0.6 0 0 0.60068 0 -0.39996] CT
0.149 GC
2 setlinecap
1 LJ
0.833 LW
N
918.464 66 M
918.464 73.44 L
S
GR
GS
[0.6 0 0 0.60068 0 -0.39996] CT
0.149 GC
2 setlinecap
1 LJ
0.833 LW
N
959.616 66 M
959.616 73.44 L
S
GR
GS
[0.6 0 0 0.60068 0 -0.39996] CT
0.149 GC
2 setlinecap
1 LJ
0.833 LW
N
995.914 66 M
995.914 73.44 L
S
GR
GS
[0.6 0 0 0.60068 0 -0.39996] CT
0.149 GC
2 setlinecap
1 LJ
0.833 LW
N
1028.384 66 M
1028.384 73.44 L
S
GR
GS
[0.6 0 0 0.60068 0 -0.39996] CT
0.149 GC
2 setlinecap
1 LJ
0.833 LW
N
1242 66 M
1242 73.44 L
S
GR
GS
[0.6 0 0 0.60068 0 -0.39996] CT
0.149 GC
2 setlinecap
1 LJ
0.833 LW
N
1366.957 66 M
1366.957 73.44 L
S
GR
GS
[0.6 0 0 0.60068 0 -0.39996] CT
0.149 GC
2 setlinecap
1 LJ
0.833 LW
N
1455.616 66 M
1455.616 73.44 L
S
GR
GS
[0.6 0 0 0.60068 0 -0.39996] CT
0.149 GC
2 setlinecap
1 LJ
0.833 LW
N
1524.384 66 M
1524.384 73.44 L
S
GR
GS
[0.6 0 0 0.60068 0 -0.39996] CT
0.149 GC
2 setlinecap
1 LJ
0.833 LW
N
1580.573 66 M
1580.573 73.44 L
S
GR
GS
[0.6 0 0 0.60068 0 -0.39996] CT
0.149 GC
2 setlinecap
1 LJ
0.833 LW
N
1628.079 66 M
1628.079 73.44 L
S
GR
GS
[0.6 0 0 0.60068 0 -0.39996] CT
0.149 GC
2 setlinecap
1 LJ
0.833 LW
N
1669.231 66 M
1669.231 73.44 L
S
GR
GS
[0.6 0 0 0.60068 0 -0.39996] CT
0.149 GC
2 setlinecap
1 LJ
0.833 LW
N
1705.53 66 M
1705.53 73.44 L
S
GR
GS
[0.6 0 0 0.60068 0 -0.39996] CT
0.149 GC
2 setlinecap
1 LJ
0.833 LW
N
1738 66 M
1738 73.44 L
S
GR
GS
[0.6 0 0 0.60068 181.8 486.75422] CT
0.149 GC
/Helvetica 16.667 F
GS
[1 0 0 1 0 0] CT
0 0 moveto 
1 -1 scale
(10) t 
GR
GR
GS
[0.6 0 0 0.60068 193.2 481.94875] CT
0.149 GC
/Helvetica 13.333 F
GS
[1 0 0 1 0 0] CT
0 0 moveto 
1 -1 scale
(-3) t 
GR
GR
GS
[0.6 0 0 0.60068 607.2 486.75422] CT
0.149 GC
/Helvetica 16.667 F
GS
[1 0 0 1 0 0] CT
0 0 moveto 
1 -1 scale
(10) t 
GR
GR
GS
[0.6 0 0 0.60068 618.6 481.94875] CT
0.149 GC
/Helvetica 13.333 F
GS
[1 0 0 1 0 0] CT
0 0 moveto 
1 -1 scale
(-2) t 
GR
GR
GS
[0.6 0 0 0.60068 1033.2 486.75422] CT
0.149 GC
/Helvetica 16.667 F
GS
[1 0 0 1 0 0] CT
0 0 moveto 
1 -1 scale
(10) t 
GR
GR
GS
[0.6 0 0 0.60068 1044.6 481.94875] CT
0.149 GC
/Helvetica 13.333 F
GS
[1 0 0 1 0 0] CT
0 0 moveto 
1 -1 scale
(-1) t 
GR
GR
GS
[0.6 0 0 0.60068 596.40044 489.95785] CT
0.149 GC
/Helvetica 18.333 F
GS
[1 0 0 1 0 0] CT
-10 19 moveto 
1 -1 scale
(dx) t 
GR
GR
GS
[0.6 0 0 0.60068 0 -0.39996] CT
0.149 GC
2 setlinecap
1 LJ
0.833 LW
N
250 782 M
250 66 L
S
GR
GS
[0.6 0 0 0.60068 0 -0.39996] CT
0.149 GC
2 setlinecap
1 LJ
0.833 LW
N
1738 782 M
1738 66 L
S
GR
GS
[0.6 0 0 0.60068 0 -0.39996] CT
0.149 GC
2 setlinecap
1 LJ
0.833 LW
N
250 782 M
264.88 782 L
S
GR
GS
[0.6 0 0 0.60068 0 -0.39996] CT
0.149 GC
2 setlinecap
1 LJ
0.833 LW
N
250 692.5 M
264.88 692.5 L
S
GR
GS
[0.6 0 0 0.60068 0 -0.39996] CT
0.149 GC
2 setlinecap
1 LJ
0.833 LW
N
250 603 M
264.88 603 L
S
GR
GS
[0.6 0 0 0.60068 0 -0.39996] CT
0.149 GC
2 setlinecap
1 LJ
0.833 LW
N
250 513.5 M
264.88 513.5 L
S
GR
GS
[0.6 0 0 0.60068 0 -0.39996] CT
0.149 GC
2 setlinecap
1 LJ
0.833 LW
N
250 424 M
264.88 424 L
S
GR
GS
[0.6 0 0 0.60068 0 -0.39996] CT
0.149 GC
2 setlinecap
1 LJ
0.833 LW
N
250 334.5 M
264.88 334.5 L
S
GR
GS
[0.6 0 0 0.60068 0 -0.39996] CT
0.149 GC
2 setlinecap
1 LJ
0.833 LW
N
250 245 M
264.88 245 L
S
GR
GS
[0.6 0 0 0.60068 0 -0.39996] CT
0.149 GC
2 setlinecap
1 LJ
0.833 LW
N
250 155.5 M
264.88 155.5 L
S
GR
GS
[0.6 0 0 0.60068 0 -0.39996] CT
0.149 GC
2 setlinecap
1 LJ
0.833 LW
N
250 66 M
264.88 66 L
S
GR
GS
[0.6 0 0 0.60068 0 -0.39996] CT
0.149 GC
2 setlinecap
1 LJ
0.833 LW
N
1738 782 M
1723.12 782 L
S
GR
GS
[0.6 0 0 0.60068 0 -0.39996] CT
0.149 GC
2 setlinecap
1 LJ
0.833 LW
N
1738 692.5 M
1723.12 692.5 L
S
GR
GS
[0.6 0 0 0.60068 0 -0.39996] CT
0.149 GC
2 setlinecap
1 LJ
0.833 LW
N
1738 603 M
1723.12 603 L
S
GR
GS
[0.6 0 0 0.60068 0 -0.39996] CT
0.149 GC
2 setlinecap
1 LJ
0.833 LW
N
1738 513.5 M
1723.12 513.5 L
S
GR
GS
[0.6 0 0 0.60068 0 -0.39996] CT
0.149 GC
2 setlinecap
1 LJ
0.833 LW
N
1738 424 M
1723.12 424 L
S
GR
GS
[0.6 0 0 0.60068 0 -0.39996] CT
0.149 GC
2 setlinecap
1 LJ
0.833 LW
N
1738 334.5 M
1723.12 334.5 L
S
GR
GS
[0.6 0 0 0.60068 0 -0.39996] CT
0.149 GC
2 setlinecap
1 LJ
0.833 LW
N
1738 245 M
1723.12 245 L
S
GR
GS
[0.6 0 0 0.60068 0 -0.39996] CT
0.149 GC
2 setlinecap
1 LJ
0.833 LW
N
1738 155.5 M
1723.12 155.5 L
S
GR
GS
[0.6 0 0 0.60068 0 -0.39996] CT
0.149 GC
2 setlinecap
1 LJ
0.833 LW
N
1738 66 M
1723.12 66 L
S
GR
GS
[0.6 0 0 0.60068 0 -0.39996] CT
0.149 GC
2 setlinecap
1 LJ
0.833 LW
N
250 782 M
257.44 782 L
S
GR
GS
[0.6 0 0 0.60068 0 -0.39996] CT
0.149 GC
2 setlinecap
1 LJ
0.833 LW
N
250 755.058 M
257.44 755.058 L
S
GR
GS
[0.6 0 0 0.60068 0 -0.39996] CT
0.149 GC
2 setlinecap
1 LJ
0.833 LW
N
250 739.298 M
257.44 739.298 L
S
GR
GS
[0.6 0 0 0.60068 0 -0.39996] CT
0.149 GC
2 setlinecap
1 LJ
0.833 LW
N
250 728.116 M
257.44 728.116 L
S
GR
GS
[0.6 0 0 0.60068 0 -0.39996] CT
0.149 GC
2 setlinecap
1 LJ
0.833 LW
N
250 719.442 M
257.44 719.442 L
S
GR
GS
[0.6 0 0 0.60068 0 -0.39996] CT
0.149 GC
2 setlinecap
1 LJ
0.833 LW
N
250 712.355 M
257.44 712.355 L
S
GR
GS
[0.6 0 0 0.60068 0 -0.39996] CT
0.149 GC
2 setlinecap
1 LJ
0.833 LW
N
250 706.364 M
257.44 706.364 L
S
GR
GS
[0.6 0 0 0.60068 0 -0.39996] CT
0.149 GC
2 setlinecap
1 LJ
0.833 LW
N
250 701.173 M
257.44 701.173 L
S
GR
GS
[0.6 0 0 0.60068 0 -0.39996] CT
0.149 GC
2 setlinecap
1 LJ
0.833 LW
N
250 696.595 M
257.44 696.595 L
S
GR
GS
[0.6 0 0 0.60068 0 -0.39996] CT
0.149 GC
2 setlinecap
1 LJ
0.833 LW
N
250 692.5 M
257.44 692.5 L
S
GR
GS
[0.6 0 0 0.60068 0 -0.39996] CT
0.149 GC
2 setlinecap
1 LJ
0.833 LW
N
250 665.558 M
257.44 665.558 L
S
GR
GS
[0.6 0 0 0.60068 0 -0.39996] CT
0.149 GC
2 setlinecap
1 LJ
0.833 LW
N
250 649.798 M
257.44 649.798 L
S
GR
GS
[0.6 0 0 0.60068 0 -0.39996] CT
0.149 GC
2 setlinecap
1 LJ
0.833 LW
N
250 638.616 M
257.44 638.616 L
S
GR
GS
[0.6 0 0 0.60068 0 -0.39996] CT
0.149 GC
2 setlinecap
1 LJ
0.833 LW
N
250 629.942 M
257.44 629.942 L
S
GR
GS
[0.6 0 0 0.60068 0 -0.39996] CT
0.149 GC
2 setlinecap
1 LJ
0.833 LW
N
250 622.855 M
257.44 622.855 L
S
GR
GS
[0.6 0 0 0.60068 0 -0.39996] CT
0.149 GC
2 setlinecap
1 LJ
0.833 LW
N
250 616.864 M
257.44 616.864 L
S
GR
GS
[0.6 0 0 0.60068 0 -0.39996] CT
0.149 GC
2 setlinecap
1 LJ
0.833 LW
N
250 611.673 M
257.44 611.673 L
S
GR
GS
[0.6 0 0 0.60068 0 -0.39996] CT
0.149 GC
2 setlinecap
1 LJ
0.833 LW
N
250 607.095 M
257.44 607.095 L
S
GR
GS
[0.6 0 0 0.60068 0 -0.39996] CT
0.149 GC
2 setlinecap
1 LJ
0.833 LW
N
250 603 M
257.44 603 L
S
GR
GS
[0.6 0 0 0.60068 0 -0.39996] CT
0.149 GC
2 setlinecap
1 LJ
0.833 LW
N
250 576.058 M
257.44 576.058 L
S
GR
GS
[0.6 0 0 0.60068 0 -0.39996] CT
0.149 GC
2 setlinecap
1 LJ
0.833 LW
N
250 560.298 M
257.44 560.298 L
S
GR
GS
[0.6 0 0 0.60068 0 -0.39996] CT
0.149 GC
2 setlinecap
1 LJ
0.833 LW
N
250 549.116 M
257.44 549.116 L
S
GR
GS
[0.6 0 0 0.60068 0 -0.39996] CT
0.149 GC
2 setlinecap
1 LJ
0.833 LW
N
250 540.442 M
257.44 540.442 L
S
GR
GS
[0.6 0 0 0.60068 0 -0.39996] CT
0.149 GC
2 setlinecap
1 LJ
0.833 LW
N
250 533.355 M
257.44 533.355 L
S
GR
GS
[0.6 0 0 0.60068 0 -0.39996] CT
0.149 GC
2 setlinecap
1 LJ
0.833 LW
N
250 527.364 M
257.44 527.364 L
S
GR
GS
[0.6 0 0 0.60068 0 -0.39996] CT
0.149 GC
2 setlinecap
1 LJ
0.833 LW
N
250 522.173 M
257.44 522.173 L
S
GR
GS
[0.6 0 0 0.60068 0 -0.39996] CT
0.149 GC
2 setlinecap
1 LJ
0.833 LW
N
250 517.595 M
257.44 517.595 L
S
GR
GS
[0.6 0 0 0.60068 0 -0.39996] CT
0.149 GC
2 setlinecap
1 LJ
0.833 LW
N
250 513.5 M
257.44 513.5 L
S
GR
GS
[0.6 0 0 0.60068 0 -0.39996] CT
0.149 GC
2 setlinecap
1 LJ
0.833 LW
N
250 486.558 M
257.44 486.558 L
S
GR
GS
[0.6 0 0 0.60068 0 -0.39996] CT
0.149 GC
2 setlinecap
1 LJ
0.833 LW
N
250 470.798 M
257.44 470.798 L
S
GR
GS
[0.6 0 0 0.60068 0 -0.39996] CT
0.149 GC
2 setlinecap
1 LJ
0.833 LW
N
250 459.616 M
257.44 459.616 L
S
GR
GS
[0.6 0 0 0.60068 0 -0.39996] CT
0.149 GC
2 setlinecap
1 LJ
0.833 LW
N
250 450.942 M
257.44 450.942 L
S
GR
GS
[0.6 0 0 0.60068 0 -0.39996] CT
0.149 GC
2 setlinecap
1 LJ
0.833 LW
N
250 443.855 M
257.44 443.855 L
S
GR
GS
[0.6 0 0 0.60068 0 -0.39996] CT
0.149 GC
2 setlinecap
1 LJ
0.833 LW
N
250 437.864 M
257.44 437.864 L
S
GR
GS
[0.6 0 0 0.60068 0 -0.39996] CT
0.149 GC
2 setlinecap
1 LJ
0.833 LW
N
250 432.673 M
257.44 432.673 L
S
GR
GS
[0.6 0 0 0.60068 0 -0.39996] CT
0.149 GC
2 setlinecap
1 LJ
0.833 LW
N
250 428.095 M
257.44 428.095 L
S
GR
GS
[0.6 0 0 0.60068 0 -0.39996] CT
0.149 GC
2 setlinecap
1 LJ
0.833 LW
N
250 424 M
257.44 424 L
S
GR
GS
[0.6 0 0 0.60068 0 -0.39996] CT
0.149 GC
2 setlinecap
1 LJ
0.833 LW
N
250 397.058 M
257.44 397.058 L
S
GR
GS
[0.6 0 0 0.60068 0 -0.39996] CT
0.149 GC
2 setlinecap
1 LJ
0.833 LW
N
250 381.298 M
257.44 381.298 L
S
GR
GS
[0.6 0 0 0.60068 0 -0.39996] CT
0.149 GC
2 setlinecap
1 LJ
0.833 LW
N
250 370.116 M
257.44 370.116 L
S
GR
GS
[0.6 0 0 0.60068 0 -0.39996] CT
0.149 GC
2 setlinecap
1 LJ
0.833 LW
N
250 361.442 M
257.44 361.442 L
S
GR
GS
[0.6 0 0 0.60068 0 -0.39996] CT
0.149 GC
2 setlinecap
1 LJ
0.833 LW
N
250 354.355 M
257.44 354.355 L
S
GR
GS
[0.6 0 0 0.60068 0 -0.39996] CT
0.149 GC
2 setlinecap
1 LJ
0.833 LW
N
250 348.364 M
257.44 348.364 L
S
GR
GS
[0.6 0 0 0.60068 0 -0.39996] CT
0.149 GC
2 setlinecap
1 LJ
0.833 LW
N
250 343.173 M
257.44 343.173 L
S
GR
GS
[0.6 0 0 0.60068 0 -0.39996] CT
0.149 GC
2 setlinecap
1 LJ
0.833 LW
N
250 338.595 M
257.44 338.595 L
S
GR
GS
[0.6 0 0 0.60068 0 -0.39996] CT
0.149 GC
2 setlinecap
1 LJ
0.833 LW
N
250 334.5 M
257.44 334.5 L
S
GR
GS
[0.6 0 0 0.60068 0 -0.39996] CT
0.149 GC
2 setlinecap
1 LJ
0.833 LW
N
250 307.558 M
257.44 307.558 L
S
GR
GS
[0.6 0 0 0.60068 0 -0.39996] CT
0.149 GC
2 setlinecap
1 LJ
0.833 LW
N
250 291.798 M
257.44 291.798 L
S
GR
GS
[0.6 0 0 0.60068 0 -0.39996] CT
0.149 GC
2 setlinecap
1 LJ
0.833 LW
N
250 280.616 M
257.44 280.616 L
S
GR
GS
[0.6 0 0 0.60068 0 -0.39996] CT
0.149 GC
2 setlinecap
1 LJ
0.833 LW
N
250 271.942 M
257.44 271.942 L
S
GR
GS
[0.6 0 0 0.60068 0 -0.39996] CT
0.149 GC
2 setlinecap
1 LJ
0.833 LW
N
250 264.855 M
257.44 264.855 L
S
GR
GS
[0.6 0 0 0.60068 0 -0.39996] CT
0.149 GC
2 setlinecap
1 LJ
0.833 LW
N
250 258.864 M
257.44 258.864 L
S
GR
GS
[0.6 0 0 0.60068 0 -0.39996] CT
0.149 GC
2 setlinecap
1 LJ
0.833 LW
N
250 253.673 M
257.44 253.673 L
S
GR
GS
[0.6 0 0 0.60068 0 -0.39996] CT
0.149 GC
2 setlinecap
1 LJ
0.833 LW
N
250 249.095 M
257.44 249.095 L
S
GR
GS
[0.6 0 0 0.60068 0 -0.39996] CT
0.149 GC
2 setlinecap
1 LJ
0.833 LW
N
250 245 M
257.44 245 L
S
GR
GS
[0.6 0 0 0.60068 0 -0.39996] CT
0.149 GC
2 setlinecap
1 LJ
0.833 LW
N
250 245 M
257.44 245 L
S
GR
GS
[0.6 0 0 0.60068 0 -0.39996] CT
0.149 GC
2 setlinecap
1 LJ
0.833 LW
N
250 218.058 M
257.44 218.058 L
S
GR
GS
[0.6 0 0 0.60068 0 -0.39996] CT
0.149 GC
2 setlinecap
1 LJ
0.833 LW
N
250 202.298 M
257.44 202.298 L
S
GR
GS
[0.6 0 0 0.60068 0 -0.39996] CT
0.149 GC
2 setlinecap
1 LJ
0.833 LW
N
250 191.116 M
257.44 191.116 L
S
GR
GS
[0.6 0 0 0.60068 0 -0.39996] CT
0.149 GC
2 setlinecap
1 LJ
0.833 LW
N
250 182.442 M
257.44 182.442 L
S
GR
GS
[0.6 0 0 0.60068 0 -0.39996] CT
0.149 GC
2 setlinecap
1 LJ
0.833 LW
N
250 175.355 M
257.44 175.355 L
S
GR
GS
[0.6 0 0 0.60068 0 -0.39996] CT
0.149 GC
2 setlinecap
1 LJ
0.833 LW
N
250 169.364 M
257.44 169.364 L
S
GR
GS
[0.6 0 0 0.60068 0 -0.39996] CT
0.149 GC
2 setlinecap
1 LJ
0.833 LW
N
250 164.173 M
257.44 164.173 L
S
GR
GS
[0.6 0 0 0.60068 0 -0.39996] CT
0.149 GC
2 setlinecap
1 LJ
0.833 LW
N
250 159.595 M
257.44 159.595 L
S
GR
GS
[0.6 0 0 0.60068 0 -0.39996] CT
0.149 GC
2 setlinecap
1 LJ
0.833 LW
N
250 155.5 M
257.44 155.5 L
S
GR
GS
[0.6 0 0 0.60068 0 -0.39996] CT
0.149 GC
2 setlinecap
1 LJ
0.833 LW
N
250 128.558 M
257.44 128.558 L
S
GR
GS
[0.6 0 0 0.60068 0 -0.39996] CT
0.149 GC
2 setlinecap
1 LJ
0.833 LW
N
250 112.798 M
257.44 112.798 L
S
GR
GS
[0.6 0 0 0.60068 0 -0.39996] CT
0.149 GC
2 setlinecap
1 LJ
0.833 LW
N
250 101.616 M
257.44 101.616 L
S
GR
GS
[0.6 0 0 0.60068 0 -0.39996] CT
0.149 GC
2 setlinecap
1 LJ
0.833 LW
N
250 92.942 M
257.44 92.942 L
S
GR
GS
[0.6 0 0 0.60068 0 -0.39996] CT
0.149 GC
2 setlinecap
1 LJ
0.833 LW
N
250 85.855 M
257.44 85.855 L
S
GR
GS
[0.6 0 0 0.60068 0 -0.39996] CT
0.149 GC
2 setlinecap
1 LJ
0.833 LW
N
250 79.864 M
257.44 79.864 L
S
GR
GS
[0.6 0 0 0.60068 0 -0.39996] CT
0.149 GC
2 setlinecap
1 LJ
0.833 LW
N
250 74.673 M
257.44 74.673 L
S
GR
GS
[0.6 0 0 0.60068 0 -0.39996] CT
0.149 GC
2 setlinecap
1 LJ
0.833 LW
N
250 70.095 M
257.44 70.095 L
S
GR
GS
[0.6 0 0 0.60068 0 -0.39996] CT
0.149 GC
2 setlinecap
1 LJ
0.833 LW
N
250 66 M
257.44 66 L
S
GR
GS
[0.6 0 0 0.60068 0 -0.39996] CT
0.149 GC
2 setlinecap
1 LJ
0.833 LW
N
1738 782 M
1730.56 782 L
S
GR
GS
[0.6 0 0 0.60068 0 -0.39996] CT
0.149 GC
2 setlinecap
1 LJ
0.833 LW
N
1738 755.058 M
1730.56 755.058 L
S
GR
GS
[0.6 0 0 0.60068 0 -0.39996] CT
0.149 GC
2 setlinecap
1 LJ
0.833 LW
N
1738 739.298 M
1730.56 739.298 L
S
GR
GS
[0.6 0 0 0.60068 0 -0.39996] CT
0.149 GC
2 setlinecap
1 LJ
0.833 LW
N
1738 728.116 M
1730.56 728.116 L
S
GR
GS
[0.6 0 0 0.60068 0 -0.39996] CT
0.149 GC
2 setlinecap
1 LJ
0.833 LW
N
1738 719.442 M
1730.56 719.442 L
S
GR
GS
[0.6 0 0 0.60068 0 -0.39996] CT
0.149 GC
2 setlinecap
1 LJ
0.833 LW
N
1738 712.355 M
1730.56 712.355 L
S
GR
GS
[0.6 0 0 0.60068 0 -0.39996] CT
0.149 GC
2 setlinecap
1 LJ
0.833 LW
N
1738 706.364 M
1730.56 706.364 L
S
GR
GS
[0.6 0 0 0.60068 0 -0.39996] CT
0.149 GC
2 setlinecap
1 LJ
0.833 LW
N
1738 701.173 M
1730.56 701.173 L
S
GR
GS
[0.6 0 0 0.60068 0 -0.39996] CT
0.149 GC
2 setlinecap
1 LJ
0.833 LW
N
1738 696.595 M
1730.56 696.595 L
S
GR
GS
[0.6 0 0 0.60068 0 -0.39996] CT
0.149 GC
2 setlinecap
1 LJ
0.833 LW
N
1738 692.5 M
1730.56 692.5 L
S
GR
GS
[0.6 0 0 0.60068 0 -0.39996] CT
0.149 GC
2 setlinecap
1 LJ
0.833 LW
N
1738 665.558 M
1730.56 665.558 L
S
GR
GS
[0.6 0 0 0.60068 0 -0.39996] CT
0.149 GC
2 setlinecap
1 LJ
0.833 LW
N
1738 649.798 M
1730.56 649.798 L
S
GR
GS
[0.6 0 0 0.60068 0 -0.39996] CT
0.149 GC
2 setlinecap
1 LJ
0.833 LW
N
1738 638.616 M
1730.56 638.616 L
S
GR
GS
[0.6 0 0 0.60068 0 -0.39996] CT
0.149 GC
2 setlinecap
1 LJ
0.833 LW
N
1738 629.942 M
1730.56 629.942 L
S
GR
GS
[0.6 0 0 0.60068 0 -0.39996] CT
0.149 GC
2 setlinecap
1 LJ
0.833 LW
N
1738 622.855 M
1730.56 622.855 L
S
GR
GS
[0.6 0 0 0.60068 0 -0.39996] CT
0.149 GC
2 setlinecap
1 LJ
0.833 LW
N
1738 616.864 M
1730.56 616.864 L
S
GR
GS
[0.6 0 0 0.60068 0 -0.39996] CT
0.149 GC
2 setlinecap
1 LJ
0.833 LW
N
1738 611.673 M
1730.56 611.673 L
S
GR
GS
[0.6 0 0 0.60068 0 -0.39996] CT
0.149 GC
2 setlinecap
1 LJ
0.833 LW
N
1738 607.095 M
1730.56 607.095 L
S
GR
GS
[0.6 0 0 0.60068 0 -0.39996] CT
0.149 GC
2 setlinecap
1 LJ
0.833 LW
N
1738 603 M
1730.56 603 L
S
GR
GS
[0.6 0 0 0.60068 0 -0.39996] CT
0.149 GC
2 setlinecap
1 LJ
0.833 LW
N
1738 576.058 M
1730.56 576.058 L
S
GR
GS
[0.6 0 0 0.60068 0 -0.39996] CT
0.149 GC
2 setlinecap
1 LJ
0.833 LW
N
1738 560.298 M
1730.56 560.298 L
S
GR
GS
[0.6 0 0 0.60068 0 -0.39996] CT
0.149 GC
2 setlinecap
1 LJ
0.833 LW
N
1738 549.116 M
1730.56 549.116 L
S
GR
GS
[0.6 0 0 0.60068 0 -0.39996] CT
0.149 GC
2 setlinecap
1 LJ
0.833 LW
N
1738 540.442 M
1730.56 540.442 L
S
GR
GS
[0.6 0 0 0.60068 0 -0.39996] CT
0.149 GC
2 setlinecap
1 LJ
0.833 LW
N
1738 533.355 M
1730.56 533.355 L
S
GR
GS
[0.6 0 0 0.60068 0 -0.39996] CT
0.149 GC
2 setlinecap
1 LJ
0.833 LW
N
1738 527.364 M
1730.56 527.364 L
S
GR
GS
[0.6 0 0 0.60068 0 -0.39996] CT
0.149 GC
2 setlinecap
1 LJ
0.833 LW
N
1738 522.173 M
1730.56 522.173 L
S
GR
GS
[0.6 0 0 0.60068 0 -0.39996] CT
0.149 GC
2 setlinecap
1 LJ
0.833 LW
N
1738 517.595 M
1730.56 517.595 L
S
GR
GS
[0.6 0 0 0.60068 0 -0.39996] CT
0.149 GC
2 setlinecap
1 LJ
0.833 LW
N
1738 513.5 M
1730.56 513.5 L
S
GR
GS
[0.6 0 0 0.60068 0 -0.39996] CT
0.149 GC
2 setlinecap
1 LJ
0.833 LW
N
1738 486.558 M
1730.56 486.558 L
S
GR
GS
[0.6 0 0 0.60068 0 -0.39996] CT
0.149 GC
2 setlinecap
1 LJ
0.833 LW
N
1738 470.798 M
1730.56 470.798 L
S
GR
GS
[0.6 0 0 0.60068 0 -0.39996] CT
0.149 GC
2 setlinecap
1 LJ
0.833 LW
N
1738 459.616 M
1730.56 459.616 L
S
GR
GS
[0.6 0 0 0.60068 0 -0.39996] CT
0.149 GC
2 setlinecap
1 LJ
0.833 LW
N
1738 450.942 M
1730.56 450.942 L
S
GR
GS
[0.6 0 0 0.60068 0 -0.39996] CT
0.149 GC
2 setlinecap
1 LJ
0.833 LW
N
1738 443.855 M
1730.56 443.855 L
S
GR
GS
[0.6 0 0 0.60068 0 -0.39996] CT
0.149 GC
2 setlinecap
1 LJ
0.833 LW
N
1738 437.864 M
1730.56 437.864 L
S
GR
GS
[0.6 0 0 0.60068 0 -0.39996] CT
0.149 GC
2 setlinecap
1 LJ
0.833 LW
N
1738 432.673 M
1730.56 432.673 L
S
GR
GS
[0.6 0 0 0.60068 0 -0.39996] CT
0.149 GC
2 setlinecap
1 LJ
0.833 LW
N
1738 428.095 M
1730.56 428.095 L
S
GR
GS
[0.6 0 0 0.60068 0 -0.39996] CT
0.149 GC
2 setlinecap
1 LJ
0.833 LW
N
1738 424 M
1730.56 424 L
S
GR
GS
[0.6 0 0 0.60068 0 -0.39996] CT
0.149 GC
2 setlinecap
1 LJ
0.833 LW
N
1738 397.058 M
1730.56 397.058 L
S
GR
GS
[0.6 0 0 0.60068 0 -0.39996] CT
0.149 GC
2 setlinecap
1 LJ
0.833 LW
N
1738 381.298 M
1730.56 381.298 L
S
GR
GS
[0.6 0 0 0.60068 0 -0.39996] CT
0.149 GC
2 setlinecap
1 LJ
0.833 LW
N
1738 370.116 M
1730.56 370.116 L
S
GR
GS
[0.6 0 0 0.60068 0 -0.39996] CT
0.149 GC
2 setlinecap
1 LJ
0.833 LW
N
1738 361.442 M
1730.56 361.442 L
S
GR
GS
[0.6 0 0 0.60068 0 -0.39996] CT
0.149 GC
2 setlinecap
1 LJ
0.833 LW
N
1738 354.355 M
1730.56 354.355 L
S
GR
GS
[0.6 0 0 0.60068 0 -0.39996] CT
0.149 GC
2 setlinecap
1 LJ
0.833 LW
N
1738 348.364 M
1730.56 348.364 L
S
GR
GS
[0.6 0 0 0.60068 0 -0.39996] CT
0.149 GC
2 setlinecap
1 LJ
0.833 LW
N
1738 343.173 M
1730.56 343.173 L
S
GR
GS
[0.6 0 0 0.60068 0 -0.39996] CT
0.149 GC
2 setlinecap
1 LJ
0.833 LW
N
1738 338.595 M
1730.56 338.595 L
S
GR
GS
[0.6 0 0 0.60068 0 -0.39996] CT
0.149 GC
2 setlinecap
1 LJ
0.833 LW
N
1738 334.5 M
1730.56 334.5 L
S
GR
GS
[0.6 0 0 0.60068 0 -0.39996] CT
0.149 GC
2 setlinecap
1 LJ
0.833 LW
N
1738 307.558 M
1730.56 307.558 L
S
GR
GS
[0.6 0 0 0.60068 0 -0.39996] CT
0.149 GC
2 setlinecap
1 LJ
0.833 LW
N
1738 291.798 M
1730.56 291.798 L
S
GR
GS
[0.6 0 0 0.60068 0 -0.39996] CT
0.149 GC
2 setlinecap
1 LJ
0.833 LW
N
1738 280.616 M
1730.56 280.616 L
S
GR
GS
[0.6 0 0 0.60068 0 -0.39996] CT
0.149 GC
2 setlinecap
1 LJ
0.833 LW
N
1738 271.942 M
1730.56 271.942 L
S
GR
GS
[0.6 0 0 0.60068 0 -0.39996] CT
0.149 GC
2 setlinecap
1 LJ
0.833 LW
N
1738 264.855 M
1730.56 264.855 L
S
GR
GS
[0.6 0 0 0.60068 0 -0.39996] CT
0.149 GC
2 setlinecap
1 LJ
0.833 LW
N
1738 258.864 M
1730.56 258.864 L
S
GR
GS
[0.6 0 0 0.60068 0 -0.39996] CT
0.149 GC
2 setlinecap
1 LJ
0.833 LW
N
1738 253.673 M
1730.56 253.673 L
S
GR
GS
[0.6 0 0 0.60068 0 -0.39996] CT
0.149 GC
2 setlinecap
1 LJ
0.833 LW
N
1738 249.095 M
1730.56 249.095 L
S
GR
GS
[0.6 0 0 0.60068 0 -0.39996] CT
0.149 GC
2 setlinecap
1 LJ
0.833 LW
N
1738 245 M
1730.56 245 L
S
GR
GS
[0.6 0 0 0.60068 0 -0.39996] CT
0.149 GC
2 setlinecap
1 LJ
0.833 LW
N
1738 245 M
1730.56 245 L
S
GR
GS
[0.6 0 0 0.60068 0 -0.39996] CT
0.149 GC
2 setlinecap
1 LJ
0.833 LW
N
1738 218.058 M
1730.56 218.058 L
S
GR
GS
[0.6 0 0 0.60068 0 -0.39996] CT
0.149 GC
2 setlinecap
1 LJ
0.833 LW
N
1738 202.298 M
1730.56 202.298 L
S
GR
GS
[0.6 0 0 0.60068 0 -0.39996] CT
0.149 GC
2 setlinecap
1 LJ
0.833 LW
N
1738 191.116 M
1730.56 191.116 L
S
GR
GS
[0.6 0 0 0.60068 0 -0.39996] CT
0.149 GC
2 setlinecap
1 LJ
0.833 LW
N
1738 182.442 M
1730.56 182.442 L
S
GR
GS
[0.6 0 0 0.60068 0 -0.39996] CT
0.149 GC
2 setlinecap
1 LJ
0.833 LW
N
1738 175.355 M
1730.56 175.355 L
S
GR
GS
[0.6 0 0 0.60068 0 -0.39996] CT
0.149 GC
2 setlinecap
1 LJ
0.833 LW
N
1738 169.364 M
1730.56 169.364 L
S
GR
GS
[0.6 0 0 0.60068 0 -0.39996] CT
0.149 GC
2 setlinecap
1 LJ
0.833 LW
N
1738 164.173 M
1730.56 164.173 L
S
GR
GS
[0.6 0 0 0.60068 0 -0.39996] CT
0.149 GC
2 setlinecap
1 LJ
0.833 LW
N
1738 159.595 M
1730.56 159.595 L
S
GR
GS
[0.6 0 0 0.60068 0 -0.39996] CT
0.149 GC
2 setlinecap
1 LJ
0.833 LW
N
1738 155.5 M
1730.56 155.5 L
S
GR
GS
[0.6 0 0 0.60068 0 -0.39996] CT
0.149 GC
2 setlinecap
1 LJ
0.833 LW
N
1738 128.558 M
1730.56 128.558 L
S
GR
GS
[0.6 0 0 0.60068 0 -0.39996] CT
0.149 GC
2 setlinecap
1 LJ
0.833 LW
N
1738 112.798 M
1730.56 112.798 L
S
GR
GS
[0.6 0 0 0.60068 0 -0.39996] CT
0.149 GC
2 setlinecap
1 LJ
0.833 LW
N
1738 101.616 M
1730.56 101.616 L
S
GR
GS
[0.6 0 0 0.60068 0 -0.39996] CT
0.149 GC
2 setlinecap
1 LJ
0.833 LW
N
1738 92.942 M
1730.56 92.942 L
S
GR
GS
[0.6 0 0 0.60068 0 -0.39996] CT
0.149 GC
2 setlinecap
1 LJ
0.833 LW
N
1738 85.855 M
1730.56 85.855 L
S
GR
GS
[0.6 0 0 0.60068 0 -0.39996] CT
0.149 GC
2 setlinecap
1 LJ
0.833 LW
N
1738 79.864 M
1730.56 79.864 L
S
GR
GS
[0.6 0 0 0.60068 0 -0.39996] CT
0.149 GC
2 setlinecap
1 LJ
0.833 LW
N
1738 74.673 M
1730.56 74.673 L
S
GR
GS
[0.6 0 0 0.60068 0 -0.39996] CT
0.149 GC
2 setlinecap
1 LJ
0.833 LW
N
1738 70.095 M
1730.56 70.095 L
S
GR
GS
[0.6 0 0 0.60068 0 -0.39996] CT
0.149 GC
2 setlinecap
1 LJ
0.833 LW
N
1738 66 M
1730.56 66 L
S
GR
GS
[0.6 0 0 0.60068 123 474.74055] CT
0.149 GC
/Helvetica 16.667 F
GS
[1 0 0 1 0 0] CT
0 0 moveto 
1 -1 scale
(10) t 
GR
GR
GS
[0.6 0 0 0.60068 134.4 469.93508] CT
0.149 GC
/Helvetica 13.333 F
GS
[1 0 0 1 0 0] CT
0 0 moveto 
1 -1 scale
(-10) t 
GR
GR
GS
[0.6 0 0 0.60068 127.2 421.27973] CT
0.149 GC
/Helvetica 16.667 F
GS
[1 0 0 1 0 0] CT
0 0 moveto 
1 -1 scale
(10) t 
GR
GR
GS
[0.6 0 0 0.60068 138.6 416.47427] CT
0.149 GC
/Helvetica 13.333 F
GS
[1 0 0 1 0 0] CT
0 0 moveto 
1 -1 scale
(-9) t 
GR
GR
GS
[0.6 0 0 0.60068 127.2 367.21823] CT
0.149 GC
/Helvetica 16.667 F
GS
[1 0 0 1 0 0] CT
0 0 moveto 
1 -1 scale
(10) t 
GR
GR
GS
[0.6 0 0 0.60068 138.6 362.41277] CT
0.149 GC
/Helvetica 13.333 F
GS
[1 0 0 1 0 0] CT
0 0 moveto 
1 -1 scale
(-8) t 
GR
GR
GS
[0.6 0 0 0.60068 127.2 313.75742] CT
0.149 GC
/Helvetica 16.667 F
GS
[1 0 0 1 0 0] CT
0 0 moveto 
1 -1 scale
(10) t 
GR
GR
GS
[0.6 0 0 0.60068 138.6 308.95195] CT
0.149 GC
/Helvetica 13.333 F
GS
[1 0 0 1 0 0] CT
0 0 moveto 
1 -1 scale
(-7) t 
GR
GR
GS
[0.6 0 0 0.60068 127.2 259.69592] CT
0.149 GC
/Helvetica 16.667 F
GS
[1 0 0 1 0 0] CT
0 0 moveto 
1 -1 scale
(10) t 
GR
GR
GS
[0.6 0 0 0.60068 138.6 254.89045] CT
0.149 GC
/Helvetica 13.333 F
GS
[1 0 0 1 0 0] CT
0 0 moveto 
1 -1 scale
(-6) t 
GR
GR
GS
[0.6 0 0 0.60068 127.2 206.2351] CT
0.149 GC
/Helvetica 16.667 F
GS
[1 0 0 1 0 0] CT
0 0 moveto 
1 -1 scale
(10) t 
GR
GR
GS
[0.6 0 0 0.60068 138.6 201.42964] CT
0.149 GC
/Helvetica 13.333 F
GS
[1 0 0 1 0 0] CT
0 0 moveto 
1 -1 scale
(-5) t 
GR
GR
GS
[0.6 0 0 0.60068 127.2 152.1736] CT
0.149 GC
/Helvetica 16.667 F
GS
[1 0 0 1 0 0] CT
0 0 moveto 
1 -1 scale
(10) t 
GR
GR
GS
[0.6 0 0 0.60068 138.6 147.36814] CT
0.149 GC
/Helvetica 13.333 F
GS
[1 0 0 1 0 0] CT
0 0 moveto 
1 -1 scale
(-4) t 
GR
GR
GS
[0.6 0 0 0.60068 127.2 98.71279] CT
0.149 GC
/Helvetica 16.667 F
GS
[1 0 0 1 0 0] CT
0 0 moveto 
1 -1 scale
(10) t 
GR
GR
GS
[0.6 0 0 0.60068 138.6 93.90732] CT
0.149 GC
/Helvetica 13.333 F
GS
[1 0 0 1 0 0] CT
0 0 moveto 
1 -1 scale
(-3) t 
GR
GR
GS
[0.6 0 0 0.60068 127.2 44.65129] CT
0.149 GC
/Helvetica 16.667 F
GS
[1 0 0 1 0 0] CT
0 0 moveto 
1 -1 scale
(10) t 
GR
GR
GS
[0.6 0 0 0.60068 138.6 39.84582] CT
0.149 GC
/Helvetica 13.333 F
GS
[1 0 0 1 0 0] CT
0 0 moveto 
1 -1 scale
(-2) t 
GR
GR
GS
[0 -0.60068 0.6 0 120.2 254.28957] CT
0.149 GC
/Helvetica 18.333 F
GS
[1 0 0 1 0 0] CT
-23.5 -4 moveto 
1 -1 scale
(Emax) t 
GR
GR
GS
[0.6 0 0 0.60068 596.40059 37.59325] CT
/Helvetica-Bold 18.333 F
GS
[1 0 0 1 0 0] CT
-227 -4 moveto 
1 -1 scale
(Convergence order in space of the 2D wave equation) t 
GR
GR
GS
[0.6 0 0 0.60068 0 -0.39996] CT
0 0.447 0.741 RC
1 LJ
0.833 LW
N
1738 191.706 M
1524.384 304.101 L
1310.769 358.047 L
1097.153 411.947 L
883.538 514.055 L
669.922 567.94 L
456.307 664.39 L
249.823 716.354 L
S
GR
GS
[0.6 0 0 0.60068 0 -0.39996] CT
0.851 0.325 0.098 RC
1 LJ
0.833 LW
N
1738 66 M
1028.384 245 L
318.769 424 L
S
GR
GS
[0.6 0 0 0.60068 0 -0.39996] CT
1 GC
N
288 135 M
288 90 L
636 90 L
636 135 L
cp
f
GR
GS
[0.6 0 0 0.60068 235.32014 61.06722] CT
/Helvetica 15 F
GS
[1 0 0 1 0 0] CT
0 6 moveto 
1 -1 scale
(Maximum error) t 
GR
GR
GS
[0.6 0 0 0.60068 0 -0.39996] CT
0 0.447 0.741 RC
1 LJ
0.833 LW
N
350.995 102.329 M
388.454 102.329 L
S
GR
GS
[0.6 0 0 0.60068 235.32014 73.2866] CT
/Helvetica 15 F
GS
[1 0 0 1 0 0] CT
0 6 moveto 
1 -1 scale
(Second order convergence) t 
GR
GR
GS
[0.6 0 0 0.60068 0 -0.39996] CT
0.851 0.325 0.098 RC
1 LJ
0.833 LW
N
350.995 122.671 M
388.454 122.671 L
S
GR
GS
[0.6 0 0 0.60068 0 -0.39996] CT
0.149 GC
10.0 ML
0.833 LW
N
288 135 M
288 90 L
636 90 L
636 135 L
cp
S
GR
%%Trailer
%%Pages: 1
%%EOF
